ID;de-gaap-ci;description
0200;bs.ass.fixAss.intan.concessionBrands.concession;Konzessionen
0220;bs.ass.fixAss.intan.concessionBrands;Gewerbliche Schutzrechte
0225;bs.ass.fixAss.intan.concessionBrands.software;erworbene EDV-Software
0230;bs.ass.fixAss.intan.concessionBrands.licenses;erworbene Lizenzen
0300;bs.ass.fixAss.intan.goodwill;Geschäfts- oder Firmenwert
0500;bs.ass.fixAss.tan.landBuildings.landWithoutBuildings;Unbebaute Grundstücke
0510;bs.ass.fixAss.tan.landBuildings.buildingsOnOwnLand.misc;Bebaute Grundstücke
0520;;Gebäude (Sammelkonto)
0530;;Betriebsgebäude
0540;;Verwaltungsgebäude
0550;;Andere Bauten
0560;;Grundstückseinrichtungen
0570;;Gebäudeeinrichtungen
0590;;Wohngebäude
0700;;Anlagen und Maschinen der Energieversorgung
0710;;Anlagen der Materiallagerung und -bereitstellung
0720;;Anlagen und Maschinen der mechanischen Materialbearbeitung, -verarbeitung und -umwandlung
0730;;Anlagen für Wärme-, Kälte- und chemische Prozesse sowie ähnliche Anlagen
0740;;Anlagen für Arbeitssicherheit und Umweltschutz
0750;;Transportanlagen und ähnliche Betriebsvorrichtungen
0760;;Verpackungsanlagen und -maschinen
0770;bs.ass.fixAss.tan.machinery.othermachinery;Sonstige Anlagen u. Maschinen
0780;;Reservemaschinen und -anlagenteile
0790;bs.ass.fixAss.tan.machinery.gwg;Geringwertige Anlagen u. Maschinen
0791;bs.ass.fixAss.tan.machinery.gwgsammelposten;GWG Sammelposten Anlagen und Maschinen Jahr 1
0792;bs.ass.fixAss.tan.machinery.gwgsammelposten;GWG Sammelposten Anlagen und Maschinen Jahr 2
0793;bs.ass.fixAss.tan.machinery.gwgsammelposten;GWG Sammelposten Anlagen und Maschinen Jahr 3
0794;bs.ass.fixAss.tan.machinery.gwgsammelposten;GWG Sammelposten Anlagen und Maschinen Jahr 4
0795;bs.ass.fixAss.tan.machinery.gwgsammelposten;GWG Sammelposten Anlagen und Maschinen Jahr 5
0800;bs.ass.fixAss.tan.other.other;Andere Anlagen
0810;bs.ass.fixAss.tan.otherEquipm.factory;Werkstätteneinrichtung
0820;;Werkzeuge, Werksgeräte und Modelle, Prüf- und Messmittel
0830;;Lager- u. Transporteinrichtungen
0840;bs.ass.fixAss.tan.otherEquipm.passengerCars;Fuhrpark
0850;bs.ass.fixAss.tan.otherEquipm.otherbga;Sonstige Betriebsausstattung
0860;bs.ass.fixAss.tan.otherEquipm.office;Büromaschinen, Organisationsmittel und Kommunikationsanlagen
0870;bs.ass.fixAss.tan.otherEquipm.office;Büromöbel und sonstige Geschäftsausstattung
0880;bs.ass.fixAss.tan.otherEquipm.office;Reserveteile für Betriebs- und Geschäftsausstattung
0890;bs.ass.fixAss.tan.otherEquipm.gwg;Geringwertige Vermögensgegenstände der Betriebs- und Geschäftsausstattung
0891;bs.ass.fixAss.tan.otherEquipm.gwgsammelposten;GWG-Sammelposten BGA Jahr 1
0892;bs.ass.fixAss.tan.otherEquipm.gwgsammelposten;GWG-Sammelposten BGA Jahr 2
0893;bs.ass.fixAss.tan.otherEquipm.gwgsammelposten;GWG-Sammelposten BGA Jahr 3
0894;bs.ass.fixAss.tan.otherEquipm.gwgsammelposten;GWG-Sammelposten BGA Jahr 4
0895;bs.ass.fixAss.tan.otherEquipm.gwgsammelposten;GWG-Sammelposten BGA Jahr 5
0900;;Geleistete Anzahlungen auf Sachanlagen
0950;;Anlagen im Bau
1300;bs.ass.fixAss.fin.particip.other;Beteiligungen
1500;bs.ass.fixAss.fin.securities;Wertpapiere des Anlagevermögens
1600;bs.ass.fixAss.fin.otherFinAss.other;Sonstige Finanzanlagen
2000;;Rohstoffe/Fertigungsmaterial
2001;;Rohstoffe/Fertigungsmaterial - Bezugskosten
2002;;Rohstoffe/Fertigungsmaterial - Nachlässe
2010;;Vorprodukte/Fremdbauteile
2011;;Vorprodukte/Fremdbauteile - Bezugskosten
2012;;Vorprodukte/Fremdbauteile - Nachlässe
2020;;Hilfsstoffe
2021;;Hilfsstoffe - Bezugskosten
2022;;Hilfsstoffe - Nachlässe
2030;;Betriebsstoffe
2031;;Betriebsstoffe - Bezugskosten
2032;;Betriebsstoffe - Nachlässe
2070;;Sonstiges Material
2071;;Sonstiges Material - Bezugskosten
2072;;Sonstiges Material - Nachlässe
2100;;Unfertige Erzeugnisse
2190;;Unfertige Leistungen
2200;;Fertige Erzeugnisse
2280;;Waren (Handelswaren)
2281;;Waren - Bezugskosten
2282;;Waren - Nachlässe
2300;;Geleistete Anzahlungen auf Vorräte
2400;;Forderungen aus Lieferungen und Leistungen
2420;;Kaufpreisforderungen
2421;;Umsatzsteuerforderungen
2450;;Wechselforderungen aus Lieferungen und Leistungen (Besitzwechsel)
2470;;Zweifelhafte Forderungen
2500;;Innergemeinschaftlicher Erwerb
2501;;Innergemeinschaftlicher Erwerb - Bezugskosten
2502;;Innergemeinschaftlicher Erwerb - Nachlässe
2510;;Gütereinfuhr
2511;;Gütereinfuhr - Bezugskosten
2512;;Gütereinfuhr - Nachlässe
2600;bs.ass.currAss.receiv.other.vat;Vorsteuer
2602;;Vorsteuer (19 %) für innergemeinschaftlichen Erwerb
2604;;Einfuhrumsatzsteuer
2630;bs.ass.currAss.receiv.other.otherTaxRec;Sonstige Forderungen an Finanzbehörden
2640;;SV-Vorauszahlung
2650;;Forderungen an Mitarbeiter
2690;bs.ass.currAss.receiv.other.other;Übrige sonstige Forderungen
2700;bs.ass.currAss.securities.other;Wertpapiere des Umlaufvermögens
2800;bs.ass.currAss.cashEquiv.bank;Guthaben bei Kreditinstituten (Bank)
2850;bs.ass.currAss.cashEquiv.bank;Postbank
2860;bs.ass.currAss.cashEquiv.cheques;Schecks
2870;bs.ass.currAss.cashEquiv.centralBank;Bundesbank
2880;bs.ass.currAss.cashEquiv.cash;Kasse
2890;bs.ass.currAss.cashEquiv.cash;Nebenkassen
2900;;Aktive Jahresabgrenzung
2920;;Umsatzsteuer auf erhaltene Anzahlungen
2930;;Disagio
2990;;nicht durch Eigenkapital gedeckter Fehlbetrag
3000;bs.eqLiab.equity.subscribed.corp;Gezeichnetes Kapital (Grundkapital/Stammkapital)
3100;bs.eqLiab.equity.capRes;Kapitalrücklage
3210;bs.eqLiab.equity.revenueRes.legal;Gesetzliche Rücklagen
3230;bs.eqLiab.equity.revenueRes.statutory;Satzungsmäßige Rücklagen
3240;bs.eqLiab.equity.revenueRes.other;Andere Gewinnrücklagen
3310;;Jahresergebnis des Vorjahres
3320;;Ergebnisvortrag aus früheren Perioden
3340;incomeUse.gainLoss.additionOtherRes;Veränderung der Rücklagen (Einstellung)
3350;incomeUse.gainLoss.netIncome;Bilanzgewinn/Bilanzverlust
3360;;Ergebnisausschüttung
3390;;Ergebnisvortrag auf neue Rechnung
3400;incomeUse.gainLoss.netIncome;Jahresüberschuss/ Jahresfehlbetrag
3500;;Sonderposten mit Rücklageanteil
3610;;Wertberichtigungen zu Sachanlagen
3650;;Wertberichtigungen zu Finanzanlagen
3670;;Einzelwertberichtigung zu Forderungen (EWB)
3680;;Pauschalwertberichtigung zu Forderungen (PWB)
3700;;Rückstellungen für Pensionen und ähnliche Verpflichtungen
3800;bs.eqLiab.accruals.tax.misc;Steuerrückstellungen
3900;bs.eqLiab.accruals.other.other;Sonstige Rückstellungen
3910;;Sonstige Rückstellungen für Gewährleistung
3930;;Sonstige Rückstellungen für andere ungewisse Verbindlichkeiten
3970;;Sonstige Rückstellungen für drohende Verluste aus schwebenden Geschäften
3990;bs.eqLiab.accruals.other.expenditure;Sonstige Rückstellungen für Aufwendungen
4100;;Anleihen
4200;bs.eqLiab.liab.bank.misc;Verbindlichkeiten gegenüber Kreditinstituten (Darlehen)
4210;bs.eqLiab.liab.bank.upTo1year;Kurzfristige Bankverbindlichkeiten
4230;bs.eqLiab.liab.bank.above1year;Mittelfristige Bankverbindlichkeiten
4250;bs.eqLiab.liab.bank.above1year;Langfristige Bankverbindlichkeiten (Darlehensschulden)
4300;;Erhaltene Anzahlungen
4400;bs.eqLiab.liab.trade.misc;Verbindlichkeiten aus Lieferungen und Leistungen
4420;;Kaufpreisverbindlichkeiten
4800;bs.eqLiab.liab.other.theroffTax.vat;Umsatzsteuer
4802;;Umsatzsteuer (19 %) für innergemeinschaftlichen Erwerb
4820;;Zollverbindlichkeiten
4830;bs.eqLiab.liab.other.theroffTax;Sonstige Verbindlichkeiten gegenüber Finanzbehörden
4850;bs.eqLiab.liab.other.employees;Verbindlichkeiten gegenüber Mitarbeitern
4860;;Verbindlichkeiten aus vermögenswirksamen Leistungen (VL)
4870;bs.eqLiab.liab.shareholders.misc;Verbindlichkeiten gegenüber Gesellschaftern (Dividende)
4890;bs.eqLiab.liab.other.other;Übrige sonstige Verbindlichkeiten
4900;;Passive Jahresabgrenzung
5000;;Umsatzerlöse für eigene Erzeugnisse
5001;;Umsatzerlöse für eigene Erzeugnisse - Erlösberichtigungen
5050;;Umsatzerlöse für andere eigene Leistungen
5051;;Umsatzerlöse für eigene Erzeugnisse - Erlösberichtigungen
5060;;Erlöse aus innergemeinschaftlicher Lieferung (i. L.)
5061;;Erlöse aus innergemeinschaftlicher Lieferung (i. L.) - Erlösberichtigungen
5070;;Erlöse aus Güterausfuhr
5071;;Erlöse aus Güterausfuhr - Erlösberichtigungen
5090;;Sonstige Nebenerlöse (z. B. aus Provisionen oder Lizenzen)
5100;;Umsatzerlöse für Waren
5101;;Umsatzerlöse für Waren - Erlösberichtigungen
5190;;Sonstige Umsatzerlöse
5191;;Sonstige Umsatzerlöse - Erlösberichtigungen
5200;;Bestandsveränderungen
5201;;Bestandsveränderungen an unfertigen Erzeugnissen und nicht abgerechneten Leistungen
5202;;Bestandsveränderungen an fertigen Erzeugnissen
5300;;Aktivierte Eigenleistungen
5400;is.netIncome.regular.operatingTC.otherOpRevenue.miscellaneous;Nebenerlöse
5401;is.netIncome.regular.operatingTC.otherOpRevenue.lease;Miet- und Pachterträge
5402;;Leasingerträge
5410;is.netIncome.regular.operatingTC.otherOpRevenue.disposFixAss.nonAllocable;Sonstige Erlöse (z.B. aus Provisionen oder Anlagenabgängen)
5420;;Entnahme von Gegenständen und sonstigen Leistungen
5430;;Andere sonstige betriebl. Erträge (z. B. Kursgewinne, Sachbezüge, außergewöhnl. Erträge)
5431;;Erträge aus Versicherungsentschädigungen
5440;;Erträge aus Werterhöhungen von Gegenständen des Anlagevermögens (Zuschreibungen)
5441;;Erträge aus Zuschreibungen zum Umlaufvermögen
5450;;Erträge aus der Auflösung oder Herabsetzung von Wertberichtigungen auf Forderungen
5455;;Erträge aus abgeschriebenen Forderungen
5460;is.netIncome.regular.operatingTC.otherOpRevenue.disposFixAss.sale.misc;Erträge aus dem Abgang von Vermögensgegenständen (z. B. Kursgewinne Wertpapierverkäufe)
5480;is.netIncome.regular.operatingTC.otherOpRevenue.releaseProv;Erträge aus der Auflösung von Rückstellungen
5490;;Periodenfremde Erträge
5500;is.netIncome.regular.fin.netParticipation.earnings.other;Erträge aus Beteiligungen
5600;;Erträge aus anderen Finanzanlagen
5710;;Zinserträge
5780;is.netIncome.regular.fin.netInterest.income.securities.misc;Erträge aus Wertpapieren des Umlaufvermögens
5790;is.netIncome.regular.fin.netInterest.income.misc;Sonstige zinsähnliche Erträge
6000;;Aufwendungen für Rohstoffe/Fertigungsmaterial
6001;;Aufwendungen für Rohstoffe/Fertigungsmaterial - Bezugskosten
6002;;Aufwendungen für Rohstoffe/Fertigungsmaterial - Nachlässe
6010;;Aufwendungen für Vorprodukte/Fremdbauteile
6011;;Aufwendungen für Vorprodukte/Fremdbauteile - Bezugskosten
6012;;Aufwendungen für Vorprodukte/Fremdbauteile - Nachlässe
6020;;Aufwendungen für Hilfsstoffe
6021;;Aufwendungen für Hilfsstoffe - Bezugskosten
6022;;Aufwendungen für Hilfsstoffe - Nachlässe
6030;;Aufwendungen für Betriebsstoffe/Verbrauchswerkzeuge
6031;;Aufwendungen für Betriebsstoffe/Verbrauchswerkzeuge - Bezugskosten
6032;;Aufwendungen für Betriebsstoffe/Verbrauchswerkzeuge - Nachlässe
6040;;Aufwendungen für Verpackungsmaterial
6050;is.netIncome.regular.operatingTC.otherCost.energyCost;Aufwendungen für Energie und Treibstoffe
6060;;Aufwendungen für Reparaturmaterial
6070;;Aufwendungen für sonstiges Material
6080;;Aufwendungen für Waren
6081;;Aufwendungen für Waren - Bezugskosten
6082;;Aufwendungen für Waren - Nachlässe
6100;;Fremdleistungen für Erzeugnisse und andere Umsatzleistungen
6140;is.netIncome.regular.operatingTC.otherCost.freight;Frachten und Fremdlager
6150;;Vertriebsprovisionen
6160;is.netIncome.regular.operatingTC.otherCost.fixingLandBuildings;Fremdinstandhaltung
6170;;Sonstige Aufwendungen für bezogene Leistungen
6200;is.netIncome.regular.operatingTC.staff.salaries.misc;Löhne - einschl. tariflicher, vertraglicher oder arbeitsbedingter Zulagen
6210;;Löhne - Urlaubs- und Weihnachtsgeld
6220;;Löhne - Sonstige tarifliche oder vertragliche Aufwendungen für Lohnempfänger
6230;is.netIncome.regular.operatingTC.staff.salaries.voluntayBenefits;Löhne - Freiwillige Zuwendungen
6250;is.netIncome.regular.operatingTC.staff.salaries.inKind;Löhne - Sachbezüge
6260;;Löhne - Vergütungen an gewerbliche Auszubildende
6300;is.netIncome.regular.operatingTC.staff.salaries.misc;Gehälter und Zulagen
6310;;Gehälter - Urlaubs- und Weihnachtsgeld
6320;;Gehälter - Sonstige tarifliche oder vertragliche Aufwendungen
6330;is.netIncome.regular.operatingTC.staff.salaries.voluntayBenefits;Gehälter - Freiwillige Zuwendungen
6350;is.netIncome.regular.operatingTC.staff.salaries.inKind;Gehälter - Sachbezüge
6360;;Gehälter - Vergütungen an Auszubildende
6400;;Arbeitgeberanteil zur Sozialversicherung (Lohnbereich)
6410;;Arbeitgeberanteil zur Sozialversicherung (Gehaltsbereich)
6420;;Beiträge zur Berufsgenossenschaft
6440;is.netIncome.regular.operatingTC.staff.social.pensions.misc;Aufwendungen für Altersversorgung
6490;is.netIncome.regular.operatingTC.staff.social.welfare;Aufwendungen für Unterstützung
6495;is.netIncome.regular.operatingTC.staff.social.other;Sonstige soziale Aufwendungen
6510;is.netIncome.regular.operatingTC.deprAmort.fixAss.otherIntan;Abschreibungen auf immaterielle Vermögensgegenstände des Anlagevermögens
6520;is.netIncome.regular.operatingTC.deprAmort.fixAss.tan.otherMisc;Abschreibungen auf Sachanlagen
6540;is.netIncome.regular.operatingTC.deprAmort.fixAss.tan.lowValueAs;Abschreibungen auf geringwertige Wirtschaftsgüter
6541;is.netIncome.regular.operatingTC.deprAmort.fixAss.tan.lowValueAsCollItem;Abschreibungen auf GWG-Sammelposten Jahr 1
6542;is.netIncome.regular.operatingTC.deprAmort.fixAss.tan.lowValueAsCollItem;Abschreibungen auf GWG-Sammelposten Jahr 2
6543;is.netIncome.regular.operatingTC.deprAmort.fixAss.tan.lowValueAsCollItem;Abschreibungen auf GWG-Sammelposten Jahr 3
6544;is.netIncome.regular.operatingTC.deprAmort.fixAss.tan.lowValueAsCollItem;Abschreibungen auf GWG-Sammelposten Jahr 4
6545;is.netIncome.regular.operatingTC.deprAmort.fixAss.tan.lowValueAsCollItem;Abschreibungen auf GWG-Sammelposten Jahr 5
6550;is.netIncome.regular.operatingTC.deprAmort.fixAss.specific.except.tan;Außerplanmäßige Abschreibungen auf Sachanlagen
6570;;Unüblich hohe Abschreibungen auf Umlaufvermögen
6600;is.netIncome.regular.operatingTC.otherCost.staffRelated;Aufwendungen für Personaleinstellung
6610;is.netIncome.regular.operatingTC.otherCost.employee;Aufwendungen für übernommene Fahrtkosten
6620;is.netIncome.regular.operatingTC.otherCost.staffRelated;Aufwendungen für Werksarzt und Arbeitssicherheit
6630;;Personenbezogene Versicherungen
6640;is.netIncome.regular.operatingTC.otherCost.training;Aufwendungen für Fort- und Weiterbildung
6650;is.netIncome.regular.operatingTC.otherCost.staffRelated;Aufwendungen für Dienstjubiläen
6660;is.netIncome.regular.operatingTC.otherCost.staffRelated;Aufwendungen für Belegschaftsveranstaltungen
6670;is.netIncome.regular.operatingTC.otherCost.staffRelated;Aufwendungen für Werksküche und Sozialeinrichtungen
6680;is.netIncome.regular.operatingTC.otherCost.staffRelated;Ausgleichsabgabe nach dem Schwerbehindertengesetz
6690;is.netIncome.regular.operatingTC.staff.misc;Übrige sonstige Personalaufwendungen
6700;is.netIncome.regular.operatingTC.otherCost.leaseFix.misc;Mietaufwendungen und Pachten (für unbewegliche Wirtschaftsgüter)
6710;is.netIncome.regular.operatingTC.otherCost.leasingAll.misc;Leasingaufwendungen
6720;is.netIncome.regular.operatingTC.otherCost.concessLicenses;Lizenzen und Konzessionen
6730;is.netIncome.regular.operatingTC.otherCost.insurance;Gebühren
6750;is.netIncome.regular.operatingTC.otherCost.otherOrdinary;Kosten des Geldverkehrs
6760;;Provisionsaufwendungen (außer Vertriebsprovisionen)
6770;is.netIncome.regular.operatingTC.otherCost.legalConsulting;Rechts- und Beratungskosten
6790;;Aufwand für Gewährleistung
6800;is.netIncome.regular.operatingTC.otherCost.otherOrdinary;Büromaterial
6810;is.netIncome.regular.operatingTC.otherCost.otherOrdinary;Zeitungen und Fachliteratur
6820;is.netIncome.regular.operatingTC.otherCost.communication;Portokosten
6830;is.netIncome.regular.operatingTC.otherCost.communication;Kosten der Telekommunikation
6850;is.netIncome.regular.operatingTC.otherCost.employee;Reisekosten
6860;is.netIncome.regular.operatingTC.otherCost.limitedDeductible.entertainment.other;Bewirtung und Präsentation
6870;is.netIncome.regular.operatingTC.otherCost.marketing;Werbung
6880;is.netIncome.regular.operatingTC.otherCost.limitedDeductible.other.donations;Spenden
6900;is.netIncome.regular.operatingTC.otherCost.insurance;Versicherungsbeiträge
6920;is.netIncome.regular.operatingTC.otherCost.insurance;Beiträge zu Wirtschaftsverbänden und Berufsvertretungen
6930;;Verluste aus Schadensfällen
6940;is.netIncome.regular.operatingTC.otherCost.misc;Sonstige Aufwendungen (z. B. Kursverluste, Kassenfehlbeträge, außergewöhnl. Aufwendungen)
6950;is.netIncome.regular.operatingTC.deprAmort.currAss.receiv.other;Abschreibungen auf Forderungen
6951;;Abschreibungen auf Forderungen wegen Uneinbringlichkeit
6952;;Einstellung in Einzelwertberichtigung (EWB)
6953;;Einstellung in Pauschalwertberichtigung (PWB)
6960;is.netIncome.regular.operatingTC.otherCost.disposFixAss.misc;Verluste aus dem Abgang von Vermögensgegenständen
6979;is.netIncome.regular.operatingTC.otherCost.disposFixAss.misc;Anlagenabgänge
6980;;Zuführungen zu Rückstellungen für Gewährleistung
6990;is.netIncome.regular.operatingTC.otherCost.otherOrdinary;Periodenfremde Aufwendungen
7020;is.netIncome.otherTaxes.other;Grundsteuer
7021;is.netIncome.otherTaxes.prevPeriodPaid;Grundsteuer - Vorjahre
7030;is.netIncome.otherTaxes.other;Kraftfahrzeugsteuer
7031;is.netIncome.otherTaxes.prevPeriodPaid;Kraftfahrzeugsteuer - Vorjahr
7032;is.netIncome.otherTaxes.prevPeriodReceived;Steuererstattungen für Kfz-Steuer - Vorjahre
7070;bs.ass.prepaidExp.customTaxDuty;Ausfuhrzölle
7080;bs.ass.prepaidExp.customTaxDuty;Verbrauchsteuern
7090;is.netIncome.otherTaxes.other;Sonstige betriebliche Steuern
7400;is.netIncome.regular.fin.netParticipation.amortFinanc.other;Abschreibungen auf Finanzanlagen
7420;is.netIncome.regular.fin.netParticipation.amortFinanc.secCurrAss;Abschreibungen auf Wertpapiere des Umlaufvermögens
7450;is.netIncome.regular.operatingTC.otherCost.disposFixAss.bookValue.fin.other;Verluste aus dem Abgang von Finanzanlagen
7460;is.netIncome.regular.operatingTC.otherCost.disposCurrAss.misc;Verluste aus dem Abgang von Wertpapieren des Umlaufvermögens
7510;is.netIncome.regular.fin.netInterest.expenses.regularInterest.other;Zinsaufwendungen
7590;is.netIncome.regular.fin.netInterest.expenses.regularInterest.misc;Sonstige zinsähnliche Aufwendungen
7700;is.netIncome.tax.gewst;Gewerbesteuer
7701;is.netIncome.tax.prevPeriodPaid.gewst;Gewerbesteuer - Vorjahre
7702;is.netIncome.tax.prevPeriodReceived.gewst;Steuererstattungen für Gewerbesteuer - Vorjahre
7710;is.netIncome.tax.kst;Körperschaftssteuer einschl. Solidaritätszuschlag
7711;is.netIncome.tax.prevPeriodPaid.kst;Körperschaftssteuer - Vorjahre
7712;is.netIncome.tax.prevPeriodReceived.kst;Steuererstattungen für Körperschaftssteuer - Vorjahre
7720;is.netIncome.tax.kest;Kapitalertragsteuer
7800;;Diverse Aufwendungen
8000;;Eröffnungsbilanzkonto
8010;;Schlussbilanzkonto
8020;;GuV-Konto Gesamtkostenverfahren
8030;;GuV-Konto Umsatzkostenverfahren
8040;;GuV-Konto MicroBilG
8050;;Saldenvorträge (Sammelkonto)
8800;;Kurzfristige Erfolgsrechnung - Gesamtkostenverfahren
8810;;Kurzfristige Erfolgsrechnung - Umsatzkostenverfahren
8900;;Aktive Rechnungsabgrenzung
