ID;de-gaap-ci;description
0200;bs.ass.fixAss.intan.concessionBrands.concession;Konzessionen
0220;bs.ass.fixAss.intan.concessionBrands.tradeMarks;Gewerbliche Schutzrechte
0225;bs.ass.fixAss.intan.concessionBrands.software;erworbene EDV-Software
0230;bs.ass.fixAss.intan.concessionBrands.licenses;erworbene Lizenzen
0300;bs.ass.fixAss.intan.goodwill;Geschäfts- oder Firmenwert
0500;bs.ass.fixAss.tan.landBuildings.landWithoutBuildings;Unbebaute Grundstücke
0510;bs.ass.fixAss.tan.landBuildings.buildingsOnOwnLand.misc;Bebaute Grundstücke
0520;bs.ass.fixAss.tan.landBuildings.misc;Gebäude (Sammelkonto)
0530;bs.ass.fixAss.tan.landBuildings.misc;Betriebsgebäude
0540;bs.ass.fixAss.tan.landBuildings.misc;Verwaltungsgebäude
0550;bs.ass.fixAss.tan.landBuildings.misc;Andere Bauten
0560;bs.ass.fixAss.tan.landBuildings.misc;Grundstückseinrichtungen
0570;bs.ass.fixAss.tan.landBuildings.misc;Gebäudeeinrichtungen
0590;bs.ass.fixAss.tan.landBuildings.misc;Wohngebäude
0700;bs.ass.fixAss.tan.machinery;Anlagen und Maschinen der Energieversorgung
0710;bs.ass.fixAss.tan.machinery.technEquipm;Anlagen der Materiallagerung und -bereitstellung
0720;bs.ass.fixAss.tan.machinery.othermachinery;Anlagen und Maschinen der mechanischen Materialbearbeitung, -verarbeitung und -umwandlung
0730;bs.ass.fixAss.tan.machinery.othermachinery;Anlagen für Wärme-, Kälte- und chemische Prozesse sowie ähnliche Anlagen
0740;bs.ass.fixAss.tan.machinery.othermachinery;Anlagen für Arbeitssicherheit und Umweltschutz
0750;bs.ass.fixAss.tan.machinery.othermachinery;Transportanlagen und ähnliche Betriebsvorrichtungen
0760;bs.ass.fixAss.tan.machinery.othermachinery;Verpackungsanlagen und -maschinen
0770;bs.ass.fixAss.tan.machinery.othermachinery;Sonstige Anlagen u. Maschinen
0780;bs.ass.fixAss.tan.machinery.spareParts;Reservemaschinen und -anlagenteile
0790;bs.ass.fixAss.tan.machinery.gwg;Geringwertige Anlagen u. Maschinen
0791;bs.ass.fixAss.tan.machinery.gwgsammelposten;GWG Sammelposten Anlagen und Maschinen Jahr 1
0792;bs.ass.fixAss.tan.machinery.gwgsammelposten;GWG Sammelposten Anlagen und Maschinen Jahr 2
0793;bs.ass.fixAss.tan.machinery.gwgsammelposten;GWG Sammelposten Anlagen und Maschinen Jahr 3
0794;bs.ass.fixAss.tan.machinery.gwgsammelposten;GWG Sammelposten Anlagen und Maschinen Jahr 4
0795;bs.ass.fixAss.tan.machinery.gwgsammelposten;GWG Sammelposten Anlagen und Maschinen Jahr 5
0800;bs.ass.fixAss.tan.other.other;Andere Anlagen
0810;bs.ass.fixAss.tan.otherEquipm.factory;Werkstätteneinrichtung
0820;bs.ass.fixAss.tan.otherEquipm.factory;Werkzeuge, Werksgeräte und Modelle, Prüf- und Messmittel
0830;bs.ass.fixAss.tan.otherEquipm.factory;Lager- u. Transporteinrichtungen
0840;bs.ass.fixAss.tan.otherEquipm.passengerCars;Fuhrpark
0850;bs.ass.fixAss.tan.otherEquipm.otherbga;Sonstige Betriebsausstattung
0860;bs.ass.fixAss.tan.otherEquipm.office;Büromaschinen, Organisationsmittel und Kommunikationsanlagen
0870;bs.ass.fixAss.tan.otherEquipm.office;Büromöbel und sonstige Geschäftsausstattung
0880;bs.ass.fixAss.tan.otherEquipm.office;Reserveteile für Betriebs- und Geschäftsausstattung
0890;bs.ass.fixAss.tan.otherEquipm.gwg;Geringwertige Vermögensgegenstände der Betriebs- und Geschäftsausstattung
0891;bs.ass.fixAss.tan.otherEquipm.gwgsammelposten;GWG-Sammelposten BGA Jahr 1
0892;bs.ass.fixAss.tan.otherEquipm.gwgsammelposten;GWG-Sammelposten BGA Jahr 2
0893;bs.ass.fixAss.tan.otherEquipm.gwgsammelposten;GWG-Sammelposten BGA Jahr 3
0894;bs.ass.fixAss.tan.otherEquipm.gwgsammelposten;GWG-Sammelposten BGA Jahr 4
0895;bs.ass.fixAss.tan.otherEquipm.gwgsammelposten;GWG-Sammelposten BGA Jahr 5
0900;bs.ass.fixAss.tan.inConstrAdvPaym.advPaym;Geleistete Anzahlungen auf Sachanlagen
0950;bs.ass.fixAss.tan.inConstrAdvPaym.equipmUnderConstr;Anlagen im Bau
1300;bs.ass.fixAss.fin.particip.other;Beteiligungen
1500;bs.ass.fixAss.fin.securities;Wertpapiere des Anlagevermögens
1600;bs.ass.fixAss.fin.otherFinAss.other;Sonstige Finanzanlagen
2000;bs.ass.currAss.inventory.material.rawMaterial;Rohstoffe/Fertigungsmaterial
2001;is.netIncome.regular.operatingTC.grossTradingProfit.materialServices.material.rawMatConsSup.unknownVAT;Rohstoffe/Fertigungsmaterial - Bezugskosten
2002;is.netIncome.regular.operatingTC.grossTradingProfit.materialServices.reductionsOffset;Rohstoffe/Fertigungsmaterial - Nachlässe
2010;bs.ass.currAss.inventory.material;Vorprodukte/Fremdbauteile
2011;is.netIncome.regular.operatingTC.grossTradingProfit.materialServices.material.rawMatConsSup.unknownVAT;Vorprodukte/Fremdbauteile - Bezugskosten
2012;is.netIncome.regular.operatingTC.grossTradingProfit.materialServices.reductionsOffset;Vorprodukte/Fremdbauteile - Nachlässe
2020;bs.ass.currAss.inventory.material.supplMaterial;Hilfsstoffe
2021;is.netIncome.regular.operatingTC.grossTradingProfit.materialServices.material.rawMatConsSup.unknownVAT;Hilfsstoffe - Bezugskosten
2022;is.netIncome.regular.operatingTC.grossTradingProfit.materialServices.reductionsOffset;Hilfsstoffe - Nachlässe
2030;bs.ass.currAss.inventory.material.consumables;Betriebsstoffe
2031;is.netIncome.regular.operatingTC.grossTradingProfit.materialServices.material.rawMatConsSup.unknownVAT;Betriebsstoffe - Bezugskosten
2032;is.netIncome.regular.operatingTC.grossTradingProfit.materialServices.reductionsOffset;Betriebsstoffe - Nachlässe
2070;bs.ass.currAss.inventory.material;Sonstiges Material
2071;is.netIncome.regular.operatingTC.grossTradingProfit.materialServices.material.purchased.unknownVAT;Sonstiges Material - Bezugskosten
2072;is.netIncome.regular.operatingTC.grossTradingProfit.materialServices.reductionsOffset;Sonstiges Material - Nachlässe
2100;bs.ass.currAss.inventory.inProgress.goods;Unfertige Erzeugnisse
2190;bs.ass.currAss.inventory.inProgress.services;Unfertige Leistungen
2200;bs.ass.currAss.inventory.finishedAndMerch.goods;Fertige Erzeugnisse
2280;bs.ass.currAss.inventory.finishedAndMerch.merchandise;Waren (Handelswaren)
2281;is.netIncome.regular.operatingTC.grossTradingProfit.materialServices.material.purchased.unknownVAT;Waren - Bezugskosten
2282;is.netIncome.regular.operatingTC.grossTradingProfit.materialServices.reductionsOffset;Waren - Nachlässe
2300;bs.ass.currAss.inventory.advPaymPaid;Geleistete Anzahlungen auf Vorräte
2400;bs.ass.currAss.receiv.trade.misc;Forderungen aus Lieferungen und Leistungen
2420;bs.ass.currAss.receiv.trade.bill;Kaufpreisforderungen
2421;bs.ass.currAss.receiv.other.vat;Umsatzsteuerforderungen
2450;bs.ass.currAss.receiv.trade.bill;Wechselforderungen aus Lieferungen und Leistungen (Besitzwechsel)
2470;bs.ass.currAss.receiv.trade.other;Zweifelhafte Forderungen
2500;is.netIncome.regular.operatingTC.grossTradingProfit.materialServices.material.rawMatConsSup.intraEU;Innergemeinschaftlicher Erwerb
2501;is.netIncome.regular.operatingTC.grossTradingProfit.materialServices.material.rawMatConsSup.intraEU;Innergemeinschaftlicher Erwerb - Bezugskosten
2502;is.netIncome.regular.operatingTC.grossTradingProfit.materialServices.material.rawMatConsSup.intraEU;Innergemeinschaftlicher Erwerb - Nachlässe
2510;is.netIncome.regular.operatingTC.grossTradingProfit.materialServices.material.purchased.misc;Gütereinfuhr
2511;is.netIncome.regular.operatingTC.grossTradingProfit.materialServices.material.purchased.misc;Gütereinfuhr - Bezugskosten
2512;is.netIncome.regular.operatingTC.grossTradingProfit.materialServices.material.purchased.misc;Gütereinfuhr - Nachlässe
2600;bs.ass.currAss.receiv.other.vat;Vorsteuer
2602;bs.ass.currAss.receiv.other.vat;Vorsteuer (19 %) für innergemeinschaftlichen Erwerb
2604;bs.ass.currAss.receiv.other.vat;Einfuhrumsatzsteuer
2630;bs.ass.currAss.receiv.other.otherTaxRec;Sonstige Forderungen an Finanzbehörden
2640;bs.ass.currAss.receiv.other.socInsur;SV-Vorauszahlung
2650;bs.ass.currAss.receiv.other.employees;Forderungen an Mitarbeiter
2690;bs.ass.currAss.receiv.other.other;Übrige sonstige Forderungen
2700;bs.ass.currAss.securities.other;Wertpapiere des Umlaufvermögens
2800;bs.ass.currAss.cashEquiv.bank;Guthaben bei Kreditinstituten (Bank)
2850;bs.ass.currAss.cashEquiv.bank;Postbank
2860;bs.ass.currAss.cashEquiv.cheques;Schecks
2870;bs.ass.currAss.cashEquiv.centralBank;Bundesbank
2880;bs.ass.currAss.cashEquiv.cash;Kasse
2890;bs.ass.currAss.cashEquiv.cash;Nebenkassen
2900;bs.ass.prepaidExp;Aktive Jahresabgrenzung
2920;bs.ass.prepaidExp.vat;Umsatzsteuer auf erhaltene Anzahlungen
2930;bs.ass.prepaidExp;Disagio
2990;bs.ass.deficitNotCoveredByCapital.netIncome.showndebit;nicht durch Eigenkapital gedeckter Fehlbetrag
3000;bs.eqLiab.equity.subscribed.corp;Gezeichnetes Kapital (Grundkapital/Stammkapital)
3100;bs.eqLiab.equity.capRes;Kapitalrücklage
3210;bs.eqLiab.equity.revenueRes.legal;Gesetzliche Rücklagen
3230;bs.eqLiab.equity.revenueRes.statutory;Satzungsmäßige Rücklagen
3240;bs.eqLiab.equity.revenueRes.other;Andere Gewinnrücklagen
3310;incomeUse.gainLoss.retainedEarningsPrevYear;Jahresergebnis des Vorjahres
3320;bs.eqLiab.equity.retainedEarnings;Ergebnisvortrag aus früheren Perioden
3340;incomeUse.gainLoss.additionOtherRes;Veränderung der Rücklagen (Einstellung)
3350;incomeUse.gainLoss.netIncome;Bilanzgewinn/Bilanzverlust
3360;incomeUse.gainLoss.dividensPlanned;Ergebnisausschüttung
3390;incomeUse.retainedEarnings;Ergebnisvortrag auf neue Rechnung
3400;incomeUse.gainLoss.netIncome;Jahresüberschuss/ Jahresfehlbetrag
3500;bs.eqLiab.pretaxRes.misc;Sonderposten mit Rücklageanteil
3610;;Wertberichtigungen zu Sachanlagen (dieses Konto ist nicht geeignet für Kapitalgesellschaften)
3650;;Wertberichtigungen zu Finanzanlagen (dieses Konto ist nicht geeignet für Kapitalgesellschaften)
3670;;Einzelwertberichtigung zu Forderungen (EWB) (dieses Konto ist nicht geeignet für Kapitalgesellschaften)
3680;;Pauschalwertberichtigung zu Forderungen (PWB) (dieses Konto ist nicht geeignet für Kapitalgesellschaften)
3700;bs.eqLiab.accruals.pensions.other;Rückstellungen für Pensionen und ähnliche Verpflichtungen
3800;bs.eqLiab.accruals.tax.misc;Steuerrückstellungen
3900;bs.eqLiab.accruals.other.other;Sonstige Rückstellungen
3910;bs.eqLiab.accruals.other.guarantees;Sonstige Rückstellungen für Gewährleistung
3930;bs.eqLiab.accruals.other.uncertainLiab.nonAllocable;Sonstige Rückstellungen für andere ungewisse Verbindlichkeiten
3970;bs.eqLiab.accruals.other.imminentLoss;Sonstige Rückstellungen für drohende Verluste aus schwebenden Geschäften
3990;bs.eqLiab.accruals.other.expenditure;Sonstige Rückstellungen für Aufwendungen
4100;bs.eqLiab.liab.securities;Anleihen
4200;bs.eqLiab.liab.bank.misc;Verbindlichkeiten gegenüber Kreditinstituten (Darlehen)
4210;bs.eqLiab.liab.bank.upTo1year;Kurzfristige Bankverbindlichkeiten
4230;bs.eqLiab.liab.bank.above1year;Mittelfristige Bankverbindlichkeiten
4250;bs.eqLiab.liab.bank.above1year;Langfristige Bankverbindlichkeiten (Darlehensschulden)
4300;bs.eqLiab.liab.advPaym;Erhaltene Anzahlungen
4400;bs.eqLiab.liab.trade.misc;Verbindlichkeiten aus Lieferungen und Leistungen
4420;bs.eqLiab.liab.other.other;Kaufpreisverbindlichkeiten
4800;bs.eqLiab.liab.other.theroffTax.vat;Umsatzsteuer
4802;bs.eqLiab.liab.other.theroffTax;Umsatzsteuer (19 %) für innergemeinschaftlichen Erwerb
4820;bs.eqLiab.liab.other.theroffTax;Zollverbindlichkeiten
4830;bs.eqLiab.liab.other.theroffTax;Sonstige Verbindlichkeiten gegenüber Finanzbehörden
4850;bs.eqLiab.liab.other.employees;Verbindlichkeiten gegenüber Mitarbeitern
4860;bs.eqLiab.liab.other.employees;Verbindlichkeiten aus vermögenswirksamen Leistungen (VL)
4870;bs.eqLiab.liab.shareholders.misc;Verbindlichkeiten gegenüber Gesellschaftern (Dividende)
4890;bs.eqLiab.liab.other.other;Übrige sonstige Verbindlichkeiten
4900;bs.eqLiab.defIncome;Passive Jahresabgrenzung
5000;is.netIncome.regular.operatingTC.grossTradingProfit.totalOutput.netSales.grossSales.unknownVAT;Umsatzerlöse für eigene Erzeugnisse
5001;is.netIncome.regular.operatingTC.grossTradingProfit.totalOutput.netSales.grossSales.unknownVAT;Umsatzerlöse für eigene Erzeugnisse - Erlösberichtigungen
5050;is.netIncome.regular.operatingTC.grossTradingProfit.totalOutput.netSales.grossSales.unknownVAT;Umsatzerlöse für andere eigene Leistungen
5051;is.netIncome.regular.operatingTC.grossTradingProfit.totalOutput.netSales.grossSales.unknownVAT;Umsatzerlöse für eigene Erzeugnisse - Erlösberichtigungen
5060;is.netIncome.regular.operatingTC.grossTradingProfit.totalOutput.netSales.grossSales.taxExemptUStG4_1b;Erlöse aus innergemeinschaftlicher Lieferung (i. L.)
5061;is.netIncome.regular.operatingTC.grossTradingProfit.totalOutput.netSales.grossSales.taxExemptUStG4_1b;Erlöse aus innergemeinschaftlicher Lieferung (i. L.) - Erlösberichtigungen
5070;is.netIncome.regular.operatingTC.grossTradingProfit.totalOutput.netSales.grossSales.taxExemptUStG4_1a;Erlöse aus Güterausfuhr
5071;is.netIncome.regular.operatingTC.grossTradingProfit.totalOutput.netSales.grossSales.taxExemptUStG4_1a;Erlöse aus Güterausfuhr - Erlösberichtigungen
5090;is.netIncome.regular.operatingTC.grossTradingProfit.totalOutput.netSales.grossSales.unknownVAT;Sonstige Nebenerlöse (z. B. aus Provisionen oder Lizenzen)
5100;is.netIncome.regular.operatingTC.grossTradingProfit.totalOutput.netSales.grossSales.unknownVAT;Umsatzerlöse für Waren
5101;is.netIncome.regular.operatingTC.grossTradingProfit.totalOutput.netSales.grossSales.unknownVAT;Umsatzerlöse für Waren - Erlösberichtigungen
5190;is.netIncome.regular.operatingTC.grossTradingProfit.totalOutput.netSales.grossSales.unknownVAT;Sonstige Umsatzerlöse
5191;is.netIncome.regular.operatingTC.grossTradingProfit.totalOutput.netSales.grossSales.unknownVAT;Sonstige Umsatzerlöse - Erlösberichtigungen
5200;ismi.netIncome.regular.operatingTC.grossTradingProfit.totalOutput.inventoryIncrease;Bestandsveränderungen
5201;is.netIncome.regular.operatingTC.grossTradingProfit.totalOutput.inventoryChange.increaseGoodsInProgress;Bestandsveränderungen an unfertigen Erzeugnissen und nicht abgerechneten Leistungen
5202;is.netIncome.regular.operatingTC.grossTradingProfit.totalOutput.inventoryChange.increasefinished;Bestandsveränderungen an fertigen Erzeugnissen
5300;is.netIncome.regular.operatingTC.grossTradingProfit.totalOutput.ownWork;Aktivierte Eigenleistungen
5400;is.netIncome.regular.operatingTC.otherOpRevenue.miscellaneous;Nebenerlöse
5401;is.netIncome.regular.operatingTC.otherOpRevenue.lease;Miet- und Pachterträge
5402;is.netIncome.regular.operatingTC.otherOpRevenue.lease;Leasingerträge
5410;is.netIncome.regular.operatingTC.otherOpRevenue.disposFixAss.nonAllocable;Sonstige Erlöse (z.B. aus Provisionen oder Anlagenabgängen)
5420;;Entnahme von Gegenständen und sonstigen Leistungen (dieses Konto ist nicht geeignet für Kapitalgesellschaften)
5430;is.netIncome.regular.operatingTC.otherOpRevenue.nonAllocable;Andere sonstige betriebl. Erträge (z. B. Kursgewinne, Sachbezüge, außergewöhnl. Erträge)
5431;is.netIncome.regular.operatingTC.otherOpRevenue.insuranceRefunds;Erträge aus Versicherungsentschädigungen
5440;is.netIncome.regular.operatingTC.otherOpRevenue.revalFixAss;Erträge aus Werterhöhungen von Gegenständen des Anlagevermögens (Zuschreibungen)
5441;is.netIncome.regular.operatingTC.otherOpRevenue.revalCurrAss.misc;Erträge aus Zuschreibungen zum Umlaufvermögen
5450;is.netIncome.regular.operatingTC.otherOpRevenue.releaseLossProv.globSpecUnknown;Erträge aus der Auflösung oder Herabsetzung von Wertberichtigungen auf Forderungen
5455;is.netIncome.regular.operatingTC.otherOpRevenue.recoveryWriteoffs;Erträge aus abgeschriebenen Forderungen
5460;is.netIncome.regular.operatingTC.otherOpRevenue.disposFixAss.sale.misc;Erträge aus dem Abgang von Vermögensgegenständen (z. B. Kursgewinne Wertpapierverkäufe)
5480;is.netIncome.regular.operatingTC.otherOpRevenue.releaseProv;Erträge aus der Auflösung von Rückstellungen
5490;is.netIncome.regular.operatingTC.otherOpRevenue.miscellaneous;Periodenfremde Erträge
5500;is.netIncome.regular.fin.netParticipation.earnings.other;Erträge aus Beteiligungen
5600;is.netIncome.regular.fin.netParticipation.earningSecurities.misc;Erträge aus anderen Finanzanlagen
5710;is.netIncome.regular.fin.netParticipation.earningSecurities.interestDividend.interest;Zinserträge
5780;is.netIncome.regular.fin.netInterest.income.securities.misc;Erträge aus Wertpapieren des Umlaufvermögens
5790;is.netIncome.regular.fin.netInterest.income.misc;Sonstige zinsähnliche Erträge
6000;is.netIncome.regular.operatingTC.grossTradingProfit.materialServices.material.rawMatConsSup.misc;Aufwendungen für Rohstoffe/Fertigungsmaterial
6001;is.netIncome.regular.operatingTC.grossTradingProfit.materialServices.material.rawMatConsSup.misc;Aufwendungen für Rohstoffe/Fertigungsmaterial - Bezugskosten
6002;is.netIncome.regular.operatingTC.grossTradingProfit.materialServices.material.rawMatConsSup.misc;Aufwendungen für Rohstoffe/Fertigungsmaterial - Nachlässe
6010;is.netIncome.regular.operatingTC.grossTradingProfit.materialServices.material.rawMatConsSup.misc;Aufwendungen für Vorprodukte/Fremdbauteile
6011;is.netIncome.regular.operatingTC.grossTradingProfit.materialServices.material.rawMatConsSup.misc;Aufwendungen für Vorprodukte/Fremdbauteile - Bezugskosten
6012;is.netIncome.regular.operatingTC.grossTradingProfit.materialServices.material.rawMatConsSup.misc;Aufwendungen für Vorprodukte/Fremdbauteile - Nachlässe
6020;is.netIncome.regular.operatingTC.grossTradingProfit.materialServices.material.rawMatConsSup.misc;Aufwendungen für Hilfsstoffe
6021;is.netIncome.regular.operatingTC.grossTradingProfit.materialServices.material.rawMatConsSup.misc;Aufwendungen für Hilfsstoffe - Bezugskosten
6022;is.netIncome.regular.operatingTC.grossTradingProfit.materialServices.material.rawMatConsSup.misc;Aufwendungen für Hilfsstoffe - Nachlässe
6030;is.netIncome.regular.operatingTC.grossTradingProfit.materialServices.material.rawMatConsSup.misc;Aufwendungen für Betriebsstoffe/Verbrauchswerkzeuge
6031;is.netIncome.regular.operatingTC.grossTradingProfit.materialServices.material.rawMatConsSup.misc;Aufwendungen für Betriebsstoffe/Verbrauchswerkzeuge - Bezugskosten
6032;is.netIncome.regular.operatingTC.grossTradingProfit.materialServices.material.rawMatConsSup.misc;Aufwendungen für Betriebsstoffe/Verbrauchswerkzeuge - Nachlässe
6040;is.netIncome.regular.operatingTC.otherCost.freight;Aufwendungen für Verpackungsmaterial
6050;is.netIncome.regular.operatingTC.otherCost.energyCost;Aufwendungen für Energie und Treibstoffe
6060;is.netIncome.regular.operatingTC.otherCost.fixing;Aufwendungen für Reparaturmaterial
6070;is.netIncome.regular.operatingTC.grossTradingProfit.materialServices.material.misc;Aufwendungen für sonstiges Material
6080;is.netIncome.regular.operatingTC.grossTradingProfit.materialServices.material.purchased.misc;Aufwendungen für Waren
6081;is.netIncome.regular.operatingTC.grossTradingProfit.materialServices.material.purchased.misc;Aufwendungen für Waren - Bezugskosten
6082;is.netIncome.regular.operatingTC.grossTradingProfit.materialServices.material.purchased.misc;Aufwendungen für Waren - Nachlässe
6100;is.netIncome.regular.operatingTC.grossTradingProfit.materialServices.services.unknownVAT;Fremdleistungen für Erzeugnisse und andere Umsatzleistungen
6140;is.netIncome.regular.operatingTC.otherCost.freight;Frachten und Fremdlager
6150;is.netIncome.regular.operatingTC.otherCost.fees;Vertriebsprovisionen
6160;is.netIncome.regular.operatingTC.otherCost.fixing;Fremdinstandhaltung
6170;is.netIncome.regular.operatingTC.grossTradingProfit.materialServices.services.unknownVAT;Sonstige Aufwendungen für bezogene Leistungen
6200;is.netIncome.regular.operatingTC.staff.salaries.misc;Löhne - einschl. tariflicher, vertraglicher oder arbeitsbedingter Zulagen
6210;is.netIncome.regular.operatingTC.staff.salaries.misc;Löhne - Urlaubs- und Weihnachtsgeld
6220;is.netIncome.regular.operatingTC.staff.salaries.misc;Löhne - Sonstige tarifliche oder vertragliche Aufwendungen für Lohnempfänger
6230;is.netIncome.regular.operatingTC.staff.salaries.voluntayBenefits;Löhne - Freiwillige Zuwendungen
6250;is.netIncome.regular.operatingTC.staff.salaries.inKind;Löhne - Sachbezüge
6260;is.netIncome.regular.operatingTC.staff.salaries.misc;Löhne - Vergütungen an gewerbliche Auszubildende
6300;is.netIncome.regular.operatingTC.staff.salaries.misc;Gehälter und Zulagen
6310;is.netIncome.regular.operatingTC.staff.salaries.misc;Gehälter - Urlaubs- und Weihnachtsgeld
6320;is.netIncome.regular.operatingTC.staff.salaries.misc;Gehälter - Sonstige tarifliche oder vertragliche Aufwendungen
6330;is.netIncome.regular.operatingTC.staff.salaries.voluntayBenefits;Gehälter - Freiwillige Zuwendungen
6350;is.netIncome.regular.operatingTC.staff.salaries.inKind;Gehälter - Sachbezüge
6360;is.netIncome.regular.operatingTC.staff.salaries.misc;Gehälter - Vergütungen an Auszubildende
6400;is.netIncome.regular.operatingTC.staff.social.socExp.misc;Arbeitgeberanteil zur Sozialversicherung (Lohnbereich)
6410;is.netIncome.regular.operatingTC.staff.social.socExp.misc;Arbeitgeberanteil zur Sozialversicherung (Gehaltsbereich)
6420;is.netIncome.regular.operatingTC.staff.social.socExp.misc;Beiträge zur Berufsgenossenschaft
6440;is.netIncome.regular.operatingTC.staff.social.pensions.misc;Aufwendungen für Altersversorgung
6490;is.netIncome.regular.operatingTC.staff.social.welfare;Aufwendungen für Unterstützung
6495;is.netIncome.regular.operatingTC.staff.social.other;Sonstige soziale Aufwendungen
6510;is.netIncome.regular.operatingTC.deprAmort.fixAss.otherIntan;Abschreibungen auf immaterielle Vermögensgegenstände des Anlagevermögens
6520;is.netIncome.regular.operatingTC.deprAmort.fixAss.tan.otherMisc;Abschreibungen auf Sachanlagen
6540;is.netIncome.regular.operatingTC.deprAmort.fixAss.tan.lowValueAs;Abschreibungen auf geringwertige Wirtschaftsgüter
6541;is.netIncome.regular.operatingTC.deprAmort.fixAss.tan.lowValueAsCollItem;Abschreibungen auf GWG-Sammelposten Jahr 1
6542;is.netIncome.regular.operatingTC.deprAmort.fixAss.tan.lowValueAsCollItem;Abschreibungen auf GWG-Sammelposten Jahr 2
6543;is.netIncome.regular.operatingTC.deprAmort.fixAss.tan.lowValueAsCollItem;Abschreibungen auf GWG-Sammelposten Jahr 3
6544;is.netIncome.regular.operatingTC.deprAmort.fixAss.tan.lowValueAsCollItem;Abschreibungen auf GWG-Sammelposten Jahr 4
6545;is.netIncome.regular.operatingTC.deprAmort.fixAss.tan.lowValueAsCollItem;Abschreibungen auf GWG-Sammelposten Jahr 5
6550;is.netIncome.regular.operatingTC.deprAmort.fixAss.specific.except.tan;Außerplanmäßige Abschreibungen auf Sachanlagen
6570;is.netIncome.regular.operatingTC.deprAmort.currAss.misc;Unüblich hohe Abschreibungen auf Umlaufvermögen
6600;is.netIncome.regular.operatingTC.otherCost.staffRelated;Aufwendungen für Personaleinstellung
6610;is.netIncome.regular.operatingTC.otherCost.employee;Aufwendungen für übernommene Fahrtkosten
6620;is.netIncome.regular.operatingTC.otherCost.staffRelated;Aufwendungen für Werksarzt und Arbeitssicherheit
6630;is.netIncome.regular.operatingTC.otherCost.staffRelated;Personenbezogene Versicherungen
6640;is.netIncome.regular.operatingTC.otherCost.training;Aufwendungen für Fort- und Weiterbildung
6650;is.netIncome.regular.operatingTC.otherCost.staffRelated;Aufwendungen für Dienstjubiläen
6660;is.netIncome.regular.operatingTC.otherCost.staffRelated;Aufwendungen für Belegschaftsveranstaltungen
6670;is.netIncome.regular.operatingTC.otherCost.staffRelated;Aufwendungen für Werksküche und Sozialeinrichtungen
6680;is.netIncome.regular.operatingTC.otherCost.staffRelated;Ausgleichsabgabe nach dem Schwerbehindertengesetz
6690;is.netIncome.regular.operatingTC.staff.misc;Übrige sonstige Personalaufwendungen
6700;is.netIncome.regular.operatingTC.otherCost.leaseFix.misc;Mietaufwendungen und Pachten (für unbewegliche Wirtschaftsgüter)
6710;is.netIncome.regular.operatingTC.otherCost.leasingAll.misc;Leasingaufwendungen
6720;is.netIncome.regular.operatingTC.otherCost.concessLicenses;Lizenzen und Konzessionen
6730;is.netIncome.regular.operatingTC.otherCost.insurance;Gebühren
6750;is.netIncome.regular.operatingTC.otherCost.otherOrdinary;Kosten des Geldverkehrs
6760;is.netIncome.regular.fin.netInterest.expenses.loanFees;Provisionsaufwendungen (außer Vertriebsprovisionen)
6770;is.netIncome.regular.operatingTC.otherCost.legalConsulting;Rechts- und Beratungskosten
6790;is.netIncome.regular.operatingTC.otherCost.otherOrdinary;Aufwand für Gewährleistung
6800;is.netIncome.regular.operatingTC.otherCost.otherOrdinary;Büromaterial
6810;is.netIncome.regular.operatingTC.otherCost.otherOrdinary;Zeitungen und Fachliteratur
6820;is.netIncome.regular.operatingTC.otherCost.communication;Portokosten
6830;is.netIncome.regular.operatingTC.otherCost.communication;Kosten der Telekommunikation
6850;is.netIncome.regular.operatingTC.otherCost.employee;Reisekosten
6860;is.netIncome.regular.operatingTC.otherCost.limitedDeductible.entertainment.other;Bewirtung und Präsentation
6870;is.netIncome.regular.operatingTC.otherCost.marketing;Werbung
6880;is.netIncome.regular.operatingTC.otherCost.limitedDeductible.other.donations;Spenden
6900;is.netIncome.regular.operatingTC.otherCost.insurance;Versicherungsbeiträge
6920;is.netIncome.regular.operatingTC.otherCost.insurance;Beiträge zu Wirtschaftsverbänden und Berufsvertretungen
6930;is.netIncome.regular.operatingTC.otherCost.miscellaneous;Verluste aus Schadensfällen
6940;is.netIncome.regular.operatingTC.otherCost.miscellaneous;Sonstige Aufwendungen (z. B. Kursverluste, Kassenfehlbeträge, außergewöhnl. Aufwendungen)
6950;is.netIncome.regular.operatingTC.deprAmort.currAss.receiv.other;Abschreibungen auf Forderungen
6951;is.netIncome.regular.operatingTC.deprAmort.currAss.receiv.misc;Abschreibungen auf Forderungen wegen Uneinbringlichkeit
6952;is.netIncome.regular.operatingTC.otherCost.transferValuatonPresentYear.specific;Einstellung in Einzelwertberichtigung (EWB)
6953;is.netIncome.regular.operatingTC.otherCost.transferValuatonPresentYear.global;Einstellung in Pauschalwertberichtigung (PWB)
6960;is.netIncome.regular.operatingTC.otherCost.disposFixAss.misc;Verluste aus dem Abgang von Vermögensgegenständen
6979;is.netIncome.regular.operatingTC.otherCost.disposFixAss.misc;Anlagenabgänge
6980;is.netIncome.regular.operatingTC.otherCost.provisions;Zuführungen zu Rückstellungen für Gewährleistung
6990;is.netIncome.regular.operatingTC.otherCost.otherOrdinary;Periodenfremde Aufwendungen
7020;is.netIncome.otherTaxes.other;Grundsteuer
7021;is.netIncome.otherTaxes.prevPeriodPaid;Grundsteuer - Vorjahre
7030;is.netIncome.otherTaxes.other;Kraftfahrzeugsteuer
7031;is.netIncome.otherTaxes.prevPeriodPaid;Kraftfahrzeugsteuer - Vorjahr
7032;is.netIncome.otherTaxes.prevPeriodReceived;Steuererstattungen für Kfz-Steuer - Vorjahre
7070;bs.ass.prepaidExp.customTaxDuty;Ausfuhrzölle
7080;bs.ass.prepaidExp.customTaxDuty;Verbrauchsteuern
7090;is.netIncome.otherTaxes.other;Sonstige betriebliche Steuern
7400;is.netIncome.regular.fin.netParticipation.amortFinanc.other;Abschreibungen auf Finanzanlagen
7420;is.netIncome.regular.fin.netParticipation.amortFinanc.secCurrAss;Abschreibungen auf Wertpapiere des Umlaufvermögens
7450;is.netIncome.regular.operatingTC.otherCost.disposFixAss.bookValue.fin.other;Verluste aus dem Abgang von Finanzanlagen
7460;is.netIncome.regular.operatingTC.otherCost.disposCurrAss.misc;Verluste aus dem Abgang von Wertpapieren des Umlaufvermögens
7510;is.netIncome.regular.fin.netInterest.expenses.regularInterest.other;Zinsaufwendungen
7590;is.netIncome.regular.fin.netInterest.expenses.regularInterest.misc;Sonstige zinsähnliche Aufwendungen
7700;is.netIncome.tax.gewst;Gewerbesteuer
7701;is.netIncome.tax.prevPeriodPaid.gewst;Gewerbesteuer - Vorjahre
7702;is.netIncome.tax.prevPeriodReceived.gewst;Steuererstattungen für Gewerbesteuer - Vorjahre
7710;is.netIncome.tax.kst;Körperschaftssteuer einschl. Solidaritätszuschlag
7711;is.netIncome.tax.prevPeriodPaid.kst;Körperschaftssteuer - Vorjahre
7712;is.netIncome.tax.prevPeriodReceived.kst;Steuererstattungen für Körperschaftssteuer - Vorjahre
7720;is.netIncome.tax.kest;Kapitalertragsteuer
7800;is.netIncome.regular.operatingTC.otherCost.misc;Diverse Aufwendungen
