source;target;description
0100;0010;Entgeltlich erworbene Konzessionen, gewerbliche Schutzrechte und ähnliche Rechte und Werte sowie Lizenzen an solchen Rechten und Werten
0110;0015;Konzessionen
0120;0020;Gewerbliche Schutzrechte
0130;0025;Ähnliche Rechte und Werte
0135;0027;EDV-Software (entgeltlich erworben)
0140;0030;Lizenzen an gewerblichen Schutzrechten und ähnlichen Rechten und Werten
0143;0043;Selbst geschaffene immaterielle Vermögensgegenstände
0144;0044;EDV-Software (selbst geschaffen)
0145;0045;Lizenzen und Franchiseverträge
0146;0046;Konzessionen und gewerbliche Schutzrechte
0147;0047;Rezepte, Verfahren, Prototypen
0148;0048;Immaterielle Vermögensgegenstände in Entwicklung
0150;0035;Geschäfts- oder Firmenwert
0170;0039;Geleistete Anzahlungen auf immaterielle Vermögensgegenstände
0179;0038;Anzahlungen auf Geschäfts- oder Firmenwert
0200;0050;Grundstücke, grundstücksgleiche Rechte und Bauten einschließlich der Bauten auf fremden Grundstücken
0210;0060;Grundstücksgleiche Rechte ohne Bauten
0215;0065;Unbebaute Grundstücke
0220;0070;Grundstücksgleiche Rechte (Erbbaurecht, Dauerwohnrecht, unbebaute Grundstücke)
0225;0075;Grundstücke mit Substanzverzehr
0230;0080;Bauten auf eigenen Grundstücken und grundstücksgleichen Rechten
0235;0085;Grundstückswerte eigener bebauter Grundstücke
0240;0090;Geschäftsbauten
0250;0100;Fabrikbauten
0260;0115;Andere Bauten
0270;0110;Garagen
0280;0111;Außenanlagen für Geschäfts-, Fabrik- und andere Bauten
0285;0112;Hof- und Wegebefestigungen
0290;0113;Einrichtungen für Geschäfts-, Fabrik- und andere Bauten
0300;0140;Wohnbauten
0305;0145;Garagen (Wohnbauten)
0310;0146;Außenanlagen (Wohnbauten)
0315;0147;Hof- und Wegebefestigungen (Wohnbauten)
0320;0148;Einrichtungen für Wohnbauten
0330;0160;Bauten auf fremden Grundstücken
0340;0165;Geschäftsbauten (fremde Grundstücke)
0350;0170;Fabrikbauten (fremde Grundstücke)
0360;0190;Wohnbauten (fremde Grundstücke)
0370;0179;Andere Bauten (fremde Grundstücke)
0380;0191;Garagen (fremde Grundstücke)
0390;0192;Außenanlagen (fremde Grundstücke)
0395;0193;Hof- und Wegebefestigungen (fremde Grundstücke)
0398;0178;Einrichtungen für Geschäfts-, Fabrik-, Wohn- und andere Bauten (fremde Grundstücke)
0400;0200;Technische Anlagen und Maschinen
0420;0240;Technische Anlagen
0440;0210;Maschinen
0450;0260;Transportanlagen und Ähnliches
0460;0220;Maschinengebundene Werkzeuge
0470;0280;Betriebsvorrichtungen
0500;0300;Andere Anlagen, Betriebs- und Geschäftsausstattung
0510;0310;Andere Anlagen
0520;0320;Pkw
0540;0350;Lkw
0560;0380;Sonstige Transportmittel
0620;0440;Werkzeuge
0630;0400;Betriebsausstattung
0635;0410;Geschäftsausstattung
0640;0430;Ladeneinrichtung
0650;0420;Büroeinrichtung
0660;0460;Gerüst- und Schalungsmaterial
0670;0480;Geringwertige Wirtschaftsgüter
0675;0485;Wirtschaftsgüter (Sammelposten)
0680;0450;Einbauten in fremde Grundstücke
0690;0490;Sonstige Betriebs- und Geschäftsausstattung
0700;;Geleistete Anzahlungen und Anlagen im Bau
0705;0079;Anzahlungen auf Grund und Boden
0710;0120;Geschäfts-, Fabrik- und andere Bauten im Bau auf eigenen Grundstücken
0720;0129;Anzahlungen auf Geschäfts-, Fabrik- und andere Bauten auf eigenen Grundstücken
0725;0150;Wohnbauten im Bau auf eigenen Grundstücken
0735;0159;Anzahlungen auf Wohnbauten auf eigenen Grundstücken
0740;0180;Geschäfts-, Fabrik- und andere Bauten im Bau auf fremden Grundstücken
0750;0189;Anzahlungen auf Geschäfts-, Fabrik- und andere Bauten auf fremden Grundstücken
0755;0195;Wohnbauten im Bau auf fremden Grundstücken
0765;0199;Anzahlungen auf Wohnbauten auf fremden Grundstücken
0770;0290;Technische Anlagen und Maschinen im Bau
0780;0299;Anzahlungen auf technische Anlagen und Maschinen
0785;0498;Andere Anlagen, Betriebs- und Geschäftsausstattung im Bau
0795;0499;Anzahlungen auf andere Anlagen, Betriebs- und Geschäftsausstattung
0800;0500;Anteile an verbundenen Unternehmen (Anlagevermögen)
0803;0501;Anteile an verbundenen Unternehmen, Personengesellschaften
0804;0502;Anteile an verbundenen Unternehmen, Kapitalgesellschaften
0805;0509;Anteile an herrschender oder mehrheitlich beteiligter Gesellschaft, Personengesellschaften
0808;0503;Anteile an herrschender oder mehrheitlich beteiligter Gesellschaft, Kapitalgesellschaften
0809;0504;Anteile an herrschender oder mit Mehrheit beteiligter Gesellschaft
0810;0505;Ausleihungen an verbundene Unternehmen
0813;0506;Ausleihungen an verbundene Unternehmen, Personengesellschaften
0814;0507;Ausleihungen an verbundene Unternehmen, Kapitalgesellschaften
0815;0508;Ausleihungen an verbundene Unternehmen, Einzelunternehmen
0820;0510;Beteiligungen
0830;0513;Typisch stille Beteiligungen
0840;0516;Atypisch stille Beteiligungen
0850;0517;Beteiligungen an Kapitalgesellschaften
0860;0518;Beteiligungen an Personengesellschaften
0880;0520;Ausleihungen an Unternehmen, mit denen ein Beteiligungsverhältnis besteht
0883;0523;Ausleihungen an Unternehmen, mit denen ein Beteiligungsverhältnis besteht, Personengesellschaften
0885;0524;Ausleihungen an Unternehmen, mit denen ein Beteiligungsverhältnis besteht, Kapitalgesellschaften
0900;0525;Wertpapiere des Anlagevermögens
0910;0530;Wertpapiere mit Gewinnbeteiligungsansprüchen, die dem Teileinkünfteverfahren unterliegen
0920;0535;Festverzinsliche Wertpapiere
0930;0540;Übrige sonstige Ausleihungen
0940;0550;Darlehen
0960;0580;Ausleihungen an Gesellschafter
0961;0582;Ausleihungen an GmbH-Gesellschafter
0970;0590;Ausleihungen an nahe stehende Personen
0980;0570;Genossenschaftsanteile zum langfristigen Verbleib
0990;0595;Rückdeckungsansprüche aus Lebensversicherungen zum langfristigen Verbleib
1000;3970;Roh-, Hilfs- und Betriebsstoffe (Bestand)
1040;7000;Unfertige Erzeugnisse, unfertige Leistungen (Bestand)
1050;7050;Unfertige Erzeugnisse (Bestand)
1080;7080;Unfertige Leistungen (Bestand)
1090;7090;In Ausführung befindliche Bauaufträge
1095;7095;In Arbeit befindliche Aufträge
1100;7100;Fertige Erzeugnisse und Waren (Bestand)
1110;7110;Fertige Erzeugnisse (Bestand)
1140;7140;Waren (Bestand)
1180;1510;Geleistete Anzahlungen auf Vorräte
1181;1511;Geleistete Anzahlungen 7 % Vorsteuer
1182;1512;Geleistete Anzahlungen 5 % Vorsteuer
1184;1517;Geleistete Anzahlungen 16 % Vorsteuer
1186;1518;Geleistete Anzahlungen 19 % Vorsteuer
1190;1722;Erhaltene Anzahlungen auf Bestellungen (von Vorräten offen abgesetzt)
1200;1400;Forderungen aus Lieferungen und Leistungen
1210;1410;Forderungen aus Lieferungen und Leistungen ohne Kontokorrent
1221;1451;Forderungen aus Lieferungen und Leistungen ohne Kontokorrent - Restlaufzeit bis 1 Jahr
1225;1455;Forderungen aus Lieferungen und Leistungen ohne Kontokorrent - Restlaufzeit größer 1 Jahr
1230;1300;Wechsel aus Lieferungen und Leistungen
1231;1301;Wechsel aus Lieferungen und Leistungen - Restlaufzeit bis 1 Jahr
1232;1302;Wechsel aus Lieferungen und Leistungen - Restlaufzeit größer 1 Jahr
1235;1305;Wechsel aus Lieferungen und Leistungen, bundesbankfähig
1240;1460;Zweifelhafte Forderungen
1241;1461;Zweifelhafte Forderungen - Restlaufzeit bis 1 Jahr
1245;1465;Zweifelhafte Forderungen - Restlaufzeit größer 1 Jahr
1246;0998;Einzelwertberichtigungen auf Forderungen - Restlaufzeit bis 1 Jahr
1247;0999;Einzelwertberichtigungen auf Forderungen - Restlaufzeit größer 1 Jahr
1248;0996;Pauschalwertberichtigung auf Forderungen - Restlaufzeit bis 1 Jahr
1249;0997;Pauschalwertberichtigung auf Forderungen - Restlaufzeit größer 1 Jahr
1250;1490;Forderungen aus Lieferungen und Leistungen gegen Gesellschafter
1251;1491;Forderungen aus Lieferungen und Leistungen gegen Gesellschafter - Restlaufzeit bis 1 Jahr
1255;1495;Forderungen aus Lieferungen und Leistungen gegen Gesellschafter - Restlaufzeit größer 1 Jahr
1258;1498;Gegenkonto zu sonstige Vermögensgegenstände bei Buchungen über Debitorenkonto
1259;;Gegenkonto 1221-1229, 1240-1245,1250-1257, 1270-1279,1290-1297 bei Aufteilung Debitorenkonto
1260;1594;Forderungen gegen verbundene Unternehmen
1261;1595;Forderungen gegen verbundene Unternehmen - Restlaufzeit bis 1 Jahr
1265;1596;Forderungen gegen verbundene Unternehmen - Restlaufzeit größer 1 Jahr
1266;1310;Besitzwechsel gegen verbundene Unternehmen
1267;1311;Besitzwechsel gegen verbundene Unternehmen - Restlaufzeit bis 1 Jahr
1268;1312;Besitzwechsel gegen verbundene Unternehmen - Restlaufzeit größer 1 Jahr
1269;1315;Besitzwechsel gegen verbundene Unternehmen, bundesbankfähig
1270;1470;Forderungen aus Lieferungen und Leistungen gegen verbundene Unternehmen
1271;1471;Forderungen aus Lieferungen und Leistungen gegen verbundene Unternehmen - Restlaufzeit bis 1 Jahr
1275;1475;Forderungen aus Lieferungen und Leistungen gegen verbundene Unternehmen - Restlaufzeit größer 1 Jahr
1276;1478;Wertberichtigungen auf Forderungen gegen verbundene Unternehmen - Restlaufzeit bis 1 Jahr
1277;1479;Wertberichtigungen auf Forderungen gegen verbundene Unternehmen - Restlaufzeit größer 1 Jahr
1280;1597;Forderungen gegen Unternehmen, mit denen ein Beteiligungsverhältnis besteht
1281;1598;Forderungen gegen Unternehmen, mit denen ein Beteiligungsverhältnis besteht - Restlaufzeit bis 1 Jahr
1285;1599;Forderungen gegen Unternehmen, mit denen ein Beteiligungsverhältnis besteht - Restlaufzeit größer 1 Jahr
1286;1320;Besitzwechsel gegen Unternehmen, mit denen ein Beteiligungsverhältnis besteht
1287;1321;Besitzwechsel gegen Unternehmen, mit denen ein Beteiligungsverhältnis besteht - Restlaufzeit bis 1 Jahr
1288;1322;Besitzwechsel gegen Unternehmen, mit denen ein Beteiligungsverhältnis besteht - Restlaufzeit größer 1 Jahr
1289;1325;Besitzwechsel gegen Unternehmen, mit denen ein Beteiligungsverhältnis besteht, bundesbankfähig
1290;1480;Forderungen aus Lieferungen und Leistungen gegen Unternehmen, mit denen ein Beteiligungsverhältnis besteht
1291;1481;Forderungen aus Lieferungen und Leistungen gegen Unternehmen, mit denen ein Beteiligungsverhältnis besteht - Restlaufzeit bis 1 Jahr
1295;1485;Forderungen aus Lieferungen und Leistungen gegen Unternehmen, mit denen ein Beteiligungsverhältnis besteht - Restlaufzeit größer 1 Jahr
1296;1488;Wertberichtigungen auf Forderungen gegen Unternehmen, mit denen ein Beteiligungsverhältnis besteht - Restlaufzeit bis 1 Jahr
1297;1489;Wertberichtigungen auf Forderungen gegen Unternehmen, mit denen ein Beteiligungsverhältnis besteht - Restlaufzeit größer 1 Jahr
1298;0830;Ausstehende Einlagen auf das gezeichnete Kapital, eingefordert
1299;0839;Nachschüsse (Forderungen, Gegenkonto 2929)
1300;1500;Sonstige Vermögensgegenstände
1301;1501;Sonstige Vermögensgegenstände - Restlaufzeit bis 1 Jahr
1305;1502;Sonstige Vermögensgegenstände - Restlaufzeit größer 1 Jahr
1307;1381;Forderungen gegen GmbH-Gesellschafter
1308;1382;Forderungen gegen GmbH-Gesellschafter - Restlaufzeit bis 1 Jahr
1309;1383;Forderungen gegen GmbH-Gesellschafter - Restlaufzeit größer 1 Jahr
1310;1503;Forderungen gegen Vorstandsmitglieder und Geschäftsführer
1311;1503;Forderungen gegen Vorstandsmitglieder und Geschäftsführer - Restlaufzeit bis 1 Jahr
1315;1504;Forderungen gegen Vorstandsmitglieder und Geschäftsführer - Restlaufzeit größer 1 Jahr
1320;1505;Forderungen gegen Aufsichtsrats- und Beiratsmitglieder
1321;1505;Forderungen gegen Aufsichtsrats- und Beiratsmitglieder - Restlaufzeit bis 1 Jahr
1325;1506;Forderungen gegen Aufsichtsrats- und Beiratsmitglieder - Restlaufzeit größer 1 Jahr
1330;1507;Forderungen gegen sonstige Gesellschafter
1331;1507;Forderungen gegen sonstige Gesellschafter - Restlaufzeit bis 1 Jahr
1335;1508;Forderungen gegen sonstige Gesellschafter - Restlaufzeit größer 1 Jahr
1337;1376;Forderungen gegen typisch stille Gesellschafter
1338;1377;Forderungen gegen typisch stille Gesellschafter - Restlaufzeit bis 1 Jahr
1339;1378;Forderungen gegen typisch stille Gesellschafter - Restlaufzeit größer 1 Jahr
1340;1530;Forderungen gegen Personal aus Lohn- und Gehaltsabrechnung
1341;1531;Forderungen gegen Personal aus Lohn- und Gehaltsabrechnung - Restlaufzeit bis 1 Jahr
1345;1537;Forderungen gegen Personal aus Lohn- und Gehaltsabrechnung - Restlaufzeit größer 1 Jahr
1349;1389;Ansprüche aus betrieblicher Altersversorgung und Pensionsansprüche (Mitunternehmer)
1350;1525;Kautionen
1351;1526;Kautionen - Restlaufzeit bis 1 Jahr
1355;1527;Kautionen - Restlaufzeit größer 1 Jahr
1360;1550;Darlehen (Forderungen)
1361;1551;Darlehen (Forderungen) - Restlaufzeit bis 1 Jahr
1365;1555;Darlehen (Forderungen) - Restlaufzeit größer 1 Jahr
1369;1520;Forderungen gegenüber Krankenkassen aus Aufwendungsausgleichsgesetz
1370;1590;Durchlaufende Posten
1374;1592;Fremdgeld
1375;1521;Agenturwarenabrechnung (Forderungen)
1376;1528;Nachträglich abziehbare Vorsteuer nach § 15a Abs. 2 UStG
1377;1529;Zurückzuzahlende Vorsteuer nach § 15a Abs. 2 UStG
1378;1355;Ansprüche aus Rückdeckungsversicherungen
1380;1356;Vermögensgegenstände zur Erfüllung von Pensionsrückstellungen und ähnlichen Verpflichtungen zum langfristigen Verbleib
1381;1357;Vermögensgegenstände zur Saldierung mit Pensionsrückstellungen und ähnlichen Verpflichtungen zum langfristigen Verbleib nach § 246 Abs. 2 HGB
1382;1353;Vermögensgegenstände zur Erfüllung von mit der Altersversorgung vergleichbaren langfristigen Verpflichtungen
1383;1354;Vermögensgegenstände zur Saldierung mit der Altersversorgung vergleichbaren langfristigen Verpflichtungen nach § 246 Abs. 2 HGB
1390;1350;GmbH-Anteile zum kurzfristigen Verbleib
1391;1519;Forderungen gegen Arbeitsgemeinschaften
1393;1522;Genussrechte
1394;1524;Einzahlungsansprüche zu Nebenleistungen oder Zuzahlungen
1395;1352;Genossenschaftsanteile zum kurzfristigen Verbleib
1396;1556;Nachträglich abziehbare Vorsteuer nach § 15a Abs. 1 UStG, bewegliche Wirtschaftsgüter
1397;1557;Zurückzuzahlende Vorsteuer nach § 15a Abs. 1 UStG, bewegliche Wirtschaftsgüter
1398;1558;Nachträglich abziehbare Vorsteuer nach § 15a Abs. 1 UStG, unbewegliche Wirtschaftsgüter
1399;1559;Zurückzuzahlende Vorsteuer nach § 15a Abs. 1 UStG, unbewegliche Wirtschaftsgüter
1400;1570;Abziehbare Vorsteuer
1401;1571;Abziehbare Vorsteuer 7%
1402;1572;Abziehbare Vorsteuer aus innergemeinschaftlichem Erwerb
1404;1574;Abziehbare Vorsteuer aus innergemeinschaftlichem Erwerb 19 %
1406;1576;Abziehbare Vorsteuer 19%
1407;1577;Abziehbare Vorsteuer nach § 13b UStG 19 %
1408;1578;Abziehbare Vorsteuer nach § 13b UStG
1410;1560;Aufzuteilende Vorsteuer
1411;1561;Aufzuteilende Vorsteuer 7 %
1412;1562;Aufzuteilende Vorsteuer aus innergemeinschaftlichem Erwerb
1413;1563;Aufzuteilende Vorsteuer aus innergemeinschaftlichem Erwerb 19 %
1416;1566;Aufzuteilende Vorsteuer 19 %
1417;1567;Aufzuteilende Vorsteuer nach §§ 13a und 13b UStG
1419;1569;Aufzuteilende Vorsteuer nach §§ 13a und 13b UStG 19 %
1420;1545;Forderungen aus Umsatzsteuer-Vorauszahlungen
1422;1546;Umsatzsteuerforderungen Vorjahr
1425;1546;Umsatzsteuerforderungen frühere Jahre
1427;1547;Forderungen aus entrichteten Verbrauchsteuern
1431;1585;Abziehbare Vorsteuer aus der Auslagerung von Gegenständen aus einem Umsatzsteuerlager
1432;1584;Abziehbare Vorsteuer aus innergemeinschaftlichem Erwerb von Neufahrzeugen von Lieferanten ohne Umsatzsteuer-Identifikationsnummer
1433;1588;Entstandene Einfuhrumsatzsteuer
1434;1548;Vorsteuer in Folgeperiode/im Folgejahr abziehbar
1435;1540;Forderungen aus Gewerbesteuerüberzahlungen
1436;1573;Vorsteuer aus Erwerb als letzter Abnehmer innerhalb eines Dreiecksgeschäfts
1440;1542;Steuererstattungsansprüche gegenüber anderen Ländern
1450;1549;Körperschaftsteuerrückforderung
1456;1543;Forderungen an das Finanzamt aus abgeführtem Bauabzugsbetrag
1457;1544;Forderungen gegenüber Bundesagentur für Arbeit
1460;1360;Geldtransit
1490;1390;Verrechnungskonto Ist-Versteuerung
1495;1593;Verrechnungskonto erhaltene Anzahlungen bei Buchung über Debitorenkonto
1498;1380;Überleitungskonto Kostenstellen
1500;1340;Anteile an verbundenen Unternehmen (Umlaufvermögen)
1504;1344;Anteile an herrschender oder mit Mehrheit beteiligter Gesellschaft
1510;1348;Sonstige Wertpapiere
1520;1327;Finanzwechsel
1525;1329;Andere Wertpapiere mit unwesentlichen Wertschwankungen
1530;1349;Wertpapieranlagen im Rahmen der kurzfristigen Finanzdisposition
1550;1330;Schecks
1600;1000;Kasse
1610;1010;Nebenkasse 1
1620;1020;Nebenkasse 2
1700;1100;Bank (Postbank)
1710;1110;Bank (Postbank 1)
1720;1120;Bank (Postbank 2)
1730;1130;Bank (Postbank 3)
1780;1190;LZB-Guthaben
1790;1195;Bundesbankguthaben
1800;1200;Bank
1810;1210;Bank 1
1820;1220;Bank 2
1830;1230;Bank 3
1840;1240;Bank 4
1850;1250;Bank 5
1890;1290;Finanzmittelanlagen im Rahmen der kurzfristigen Finanzdisposition (nicht im Finanzmittelfonds enthalten)
1895;1295;Verbindlichkeiten gegenüber Kreditinstituten (nicht im Finanzmittelfonds enthalten)
1900;0980;Aktive Rechnungsabgrenzung
1920;0984;Als Aufwand berücksichtigte Zölle und Verbrauchsteuern auf Vorräte
1930;0985;Als Aufwand berücksichtigte Umsatzsteuer auf Anzahlungen
1940;0986;Damnum/Disagio
1950;0983;Aktive latente Steuern
2900;0800;Gezeichnetes Kapital
2908;0809;Kapitalerhöhung aus Gesellschaftsmitteln
2909;0819;Erworbene eigene Anteile
2910;0820;Ausstehende Einlagen auf das gezeichnete Kapital, nicht eingefordert (Passivausweis, vom gezeichneten Kapital offen abgesetzt)
2920;0840;Kapitalrücklage
2925;0841;Kapitalrücklage durch Ausgabe von Anteilen über Nennbetrag
2926;0842;Kapitalrücklage durch Ausgabe von Schuldverschreibungen für Wandlungsrechte und Optionsrechte zum Erwerb von Anteilen
2927;0843;Kapitalrücklage durch Zuzahlungen gegen Gewährung eines Vorzugs für Anteile
2928;0844;Kapitalrücklage durch Zuzahlungen in das Eigenkapital
2929;0845;Nachschusskapital
2930;0846;Gesetzliche Rücklage
2935;0849;Rücklage für Anteile an einem herrschenden oder mehrheitlich beteiligten Unternehmen
2950;0851;Satzungsmäßige Rücklagen
2960;0855;Andere Gewinnrücklagen
2961;0848;Andere Gewinnrücklagen aus dem Erwerb eigener Anteile
2962;0856;Eigenkapitalanteil von Wertaufholungen
2963;0853;Gewinnrücklagen aus den Übergangsvorschriften BilMoG
2964;0854;Gewinnrücklagen aus den Übergangsvorschriften BilMoG (Zuschreibung Sachanlagevermögen)
2965;0857;Gewinnrücklagen aus den Übergangsvorschriften BilMoG (Zuschreibung Finanzanlagevermögen)
2966;0858;Gewinnrücklagen aus den Übergangsvorschriften BilMoG (Auflösung der Sonderposten mit Rücklageanteil)
2967;0859;Latente Steuern (Gewinnrücklage Haben) aus erfolgsneutralen Verrechnungen
2968;0988;Latente Steuern (Gewinnrücklage Soll) aus erfolgsneutralen Verrechnungen
2969;0987;Rechnungsabgrenzungsposten (Gewinnrücklage Soll) aus erfolgsneutralen Verrechnungen
2970;0860;Gewinnvortrag vor Verwendung
2978;0868;Verlustvortrag vor Verwendung
2980;0930;Übrige andere Sonderposten
2981;0931;Steuerfreie Rücklagen nach § 6b EStG
2982;0932;Rücklage für Ersatzbeschaffung
2988;0946;Rücklage für Zuschüsse
2990;0940;Sonderposten mit Rücklageanteil, Sonderabschreibungen
2995;0945;Ausgleichsposten bei Entnahmen § 4g EStG
2997;0947;Sonderposten mit Rücklageanteil nach § 7g Abs. 5 EStG
2998;0948;Sonderposten für Zuschüsse Dritter
2999;0949;Sonderposten für Investitionszulagen
3000;0950;Rückstellungen für Pensionen und ähnliche Verpflichtungen
3005;0952;Rückstellungen für Pensionen und ähnliche Verpflichtungen gegenüber Gesellschaftern oder nahe stehenden Personen (10% Beteiligung am Kapital)
3009;0951;Rückstellungen für Pensionen und ähnliche Verpflichtungen zur Saldierung mit Vermögensgegenständen zum langfristigen Verbleib nach § 246 Abs. 2 HGB
3010;0953;Rückstellungen für Direktzusagen
3011;0954;Rückstellungen für Zuschussverpflichtungen für Pensionskassen und Lebensversicherungen
3015;0950;Rückstellungen für pensionsähnliche Verpflichtungen
3020;0955;Steuerrückstellungen
3035;0956;Gewerbesteuerrückstellung nach § 4 Abs. 5b EStG
3040;0963;Körperschaftsteuerrückstellung
3050;0962;Steuerrückstellung für Steuerstundung (BStBK)
3060;0969;Rückstellungen für latente Steuern
3065;0968;Passive latente Steuern
3070;0970;Sonstige Rückstellungen
3074;0965;Rückstellungen für Personalkosten
3075;0971;Rückstellungen für unterlassene Aufwendungen für Instandhaltung, Nachholung in den ersten drei Monaten
3076;0964;Rückstellungen für mit der Altersversorgung vergleichbare langfristige Verpflichtungen zum langfristigen Verbleib
3077;0967;Rückstellungen für mit der Altersversorgung vergleichbare langfristige Verpflichtungen zur Saldierung mit Vermögensgegenständen zum langfristigen Verbleib nach § 246 Abs. 2 HGB
3079;0961;Urlaubsrückstellungen
3085;0973;Rückstellungen für Abraum- und Abfallbeseitigung
3090;0974;Rückstellungen für Gewährleistungen (Gegenkonto 6790)
3092;0976;Rückstellungen für drohende Verluste aus schwebenden Geschäften
3095;0977;Rückstellungen für Abschluss- und Prüfungskosten
3096;0966;Rückstellungen zur Erfüllung der Aufbewahrungspflichten
3098;0978;Aufwandsrückstellungen nach § 249 Abs. 2 HGB a. F.
3099;0979;Rückstellungen für Umweltschutz
3100;0600;Anleihen, nicht konvertibel
3101;0601;Anleihen, nicht konvertibel - Restlaufzeit bis 1 Jahr
3105;0605;Anleihen, nicht konvertibel - Restlaufzeit 1 bis 5 Jahre
3110;0610;Anleihen, nicht konvertibel - Restlaufzeit größer 5 Jahre
3120;0615;Anleihen, konvertibel
3121;0616;Anleihen, konvertibel - Restlaufzeit bis 1 Jahr
3125;0620;Anleihen, konvertibel - Restlaufzeit 1 bis 5 Jahre
3130;0625;Anleihen, konvertibel - Restlaufzeit größer 5 Jahre
3150;0630;Verbindlichkeiten gegenüber Kreditinstituten
3151;0631;Verbindlichkeiten gegenüber Kreditinstituten - Restlaufzeit bis 1 Jahr
3160;0640;Verbindlichkeiten gegenüber Kreditinstituten - Restlaufzeit 1 bis 5 Jahre
3170;0650;Verbindlichkeiten gegenüber Kreditinstituten - Restlaufzeit größer 5 Jahre
3180;0660;Verbindlichkeiten gegenüber Kreditinstituten aus Teilzahlungsverträgen
3181;0661;Verbindlichkeiten gegenüber Kreditinstituten aus Teilzahlungsverträgen - Restlaufzeit bis 1 Jahr
3190;0670;Verbindlichkeiten gegenüber Kreditinstituten aus Teilzahlungsverträgen - Restlaufzeit 1 bis 5 Jahre
3200;0680;Verbindlichkeiten gegenüber Kreditinstituten aus Teilzahlungsverträgen - Restlaufzeit größer 5 Jahre
3210;0690;Verbindlichkeiten gegenüber Kreditinstituten, vor Restlaufzeitdifferenzierung
3249;0699;Gegenkonto 3150-3209 bei Aufteilung der Konten 3210-3248
3250;1710;Erhaltene Anzahlungen auf Bestellungen (Verbindlichkeiten)
3260;1711;Erhaltene, versteuerte Anzahlungen 7 % USt (Verbindlichkeiten)
3261;1712;Erhaltene, versteuerte Anzahlungen 5 % USt (Verbindlichkeiten)
3264;1714;Erhaltene, versteuerte Anzahlungen 0 % USt (Verbindlichkeiten)
3270;1717;Erhaltene, versteuerte Anzahlungen 16 % USt (Verbindlichkeiten)
3272;1718;Erhaltene, versteuerte Anzahlungen 19 % USt (Verbindlichkeiten)
3279;1715;Erhaltene Anzahlungen - Nachsteuer
3280;1719;Erhaltene Anzahlungen - Restlaufzeit bis 1 Jahr
3284;1720;Erhaltene Anzahlungen - Restlaufzeit 1 bis 5 Jahre
3285;1721;Erhaltene Anzahlungen - Restlaufzeit größer 5 Jahre
3300;1600;Verbindlichkeiten aus Lieferungen und Leistungen
3310;1610;Verbindlichkeiten aus Lieferungen und Leistungen ohne Kontokorrent
3335;1625;Verbindlichkeiten aus Lieferungen und Leistungen ohne Kontokorrent - Restlaufzeit bis 1 Jahr
3337;1626;Verbindlichkeiten aus Lieferungen und Leistungen ohne Kontokorrent - Restlaufzeit 1 bis 5 Jahre
3338;1628;Verbindlichkeiten aus Lieferungen und Leistungen ohne Kontokorrent - Restlaufzeit größer 5 Jahre
3340;1650;Verbindlichkeiten aus Lieferungen und Leistungen gegenüber Gesellschaftern
3341;1651;Verbindlichkeiten aus Lieferungen und Leistungen gegenüber Gesellschaftern - Restlaufzeit bis 1 Jahr
3345;1655;Verbindlichkeiten aus Lieferungen und Leistungen gegenüber Gesellschaftern - Restlaufzeit 1 bis 5 Jahre
3348;1658;Verbindlichkeiten aus Lieferungen und Leistungen gegenüber Gesellschaftern - Restlaufzeit größer 5 Jahre
3349;1659;Gegenkonto 3335-3348, 3420-3449, 3470-3499 bei Aufteilung Kreditorenkonto
3350;1660;Wechselverbindlichkeiten
3351;1661;Wechselverbindlichkeiten - Restlaufzeit bis 1 Jahr
3380;1662;Wechselverbindlichkeiten - Restlaufzeit 1 bis 5 Jahre
3390;1663;Wechselverbindlichkeiten - Restlaufzeit größer 5 Jahre
3400;0700;Verbindlichkeiten gegenüber verbundenen Unternehmen
3401;0701;Verbindlichkeiten gegenüber verbundenen Unternehmen - Restlaufzeit bis 1 Jahr
3405;0705;Verbindlichkeiten gegenüber verbundenen Unternehmen - Restlaufzeit 1 bis 5 Jahre
3410;0710;Verbindlichkeiten gegenüber verbundenen Unternehmen - Restlaufzeit größer 5 Jahre
3420;1630;Verbindlichkeiten aus Lieferungen und Leistungen gegenüber verbundenen Unternehmen
3421;1631;Verbindlichkeiten aus Lieferungen und Leistungen gegenüber verbundenen Unternehmen - Restlaufzeit bis 1 Jahr
3425;1635;Verbindlichkeiten aus Lieferungen und Leistungen gegenüber verbundenen Unternehmen - Restlaufzeit 1 bis 5 Jahre
3430;1638;Verbindlichkeiten aus Lieferungen und Leistungen gegenüber verbundenen Unternehmen - Restlaufzeit größer 5 Jahre
3450;0715;Verbindlichkeiten gegenüber Unternehmen, mit denen ein Beteiligungsverhältnis besteht
3451;0716;Verbindlichkeiten gegenüber Unternehmen, mit denen ein Beteiligungsverhältnis besteht - Restlaufzeit bis 1 Jahr
3455;0720;Verbindlichkeiten gegenüber Unternehmen, mit denen ein Beteiligungsverhältnis besteht - Restlaufzeit 1 bis 5 Jahre
3460;0725;Verbindlichkeiten gegenüber Unternehmen, mit denen ein Beteiligungsverhältnis besteht - Restlaufzeit größer 5 Jahre
3470;1640;Verbindlichkeiten aus Lieferungen und Leistungen gegenüber Unternehmen, mit denen ein Beteiligungsverhältnis besteht
3471;1641;Verbindlichkeiten aus Lieferungen und Leistungen gegenüber Unternehmen, mit denen ein Beteiligungsverhältnis besteht - Restlaufzeit bis 1 Jahr
3475;1645;Verbindlichkeiten aus Lieferungen und Leistungen gegenüber Unternehmen, mit denen ein Beteiligungsverhältnis besteht - Restlaufzeit 1 bis 5 Jahre
3480;1648;Verbindlichkeiten aus Lieferungen und Leistungen gegenüber Unternehmen, mit denen ein Beteiligungsverhältnis besteht - Restlaufzeit größer 5 Jahre
3500;1700;Sonstige Verbindlichkeiten
3501;1701;Sonstige Verbindlichkeiten - Restlaufzeit bis 1 Jahr
3504;1702;Sonstige Verbindlichkeiten - Restlaufzeit 1 bis 5 Jahre
3507;1703;Sonstige Verbindlichkeiten - Restlaufzeit größer 5 Jahre
3510;0730;Verbindlichkeiten gegenüber Gesellschaftern
3511;0731;Verbindlichkeiten gegenüber Gesellschaftern - Restlaufzeit bis 1 Jahr
3514;0740;Verbindlichkeiten gegenüber Gesellschaftern - Restlaufzeit 1 bis 5 Jahre
3517;0750;Verbindlichkeiten gegenüber Gesellschaftern - Restlaufzeit größer 5 Jahre
3519;0755;Verbindlichkeiten gegenüber Gesellschaftern für offene Ausschüttungen
3520;0760;Verbindlichkeiten gegenüber typisch stillen Gesellschaftern
3521;0761;Verbindlichkeiten gegenüber typisch stillen Gesellschaftern - Restlaufzeit bis 1 Jahr
3524;0764;Verbindlichkeiten gegenüber typisch stillen Gesellschaftern - Restlaufzeit 1 bis 5 Jahre
3527;0767;Verbindlichkeiten gegenüber typisch stillen Gesellschaftern - Restlaufzeit größer 5 Jahre
3530;0770;Verbindlichkeiten gegenüber atypisch stillen Gesellschaftern
3531;0771;Verbindlichkeiten gegenüber atypisch stillen Gesellschaftern - Restlaufzeit bis 1 Jahr
3534;0774;Verbindlichkeiten gegenüber atypisch stillen Gesellschaftern - Restlaufzeit 1 bis 5 Jahre
3537;0777;Verbindlichkeiten gegenüber atypisch stillen Gesellschaftern - Restlaufzeit größer 5 Jahre
3540;0780;Partiarische Darlehen
3541;0781;Partiarische Darlehen - Restlaufzeit bis 1 Jahr
3544;0784;Partiarische Darlehen - Restlaufzeit 1 bis 5 Jahre
3547;0787;Partiarische Darlehen - Restlaufzeit größer 5 Jahre
3550;1732;Erhaltene Kautionen
3551;1733;Erhaltene Kautionen - Restlaufzeit bis 1 Jahr
3554;1734;Erhaltene Kautionen - Restlaufzeit 1 bis 5 Jahre
3557;1735;Erhaltene Kautionen - Restlaufzeit größer 5 Jahre
3560;1705;Darlehen (Verbindlichkeiten)
3561;1706;Darlehen (Verbindlichkeiten) - Restlaufzeit bis 1 Jahr
3564;1707;Darlehen (Verbindlichkeiten) - Restlaufzeit 1 bis 5 Jahre
3567;1708;Darlehen (Verbindlichkeiten) - Restlaufzeit größer 5 Jahre
3570;0790;Sonstige Verbindlichkeiten, vor Restlaufzeitdifferenzierung (nur Bilanzierer)
3599;0799;Gegenkonto 3500-3569 und 3640-3658 bei Aufteilung der Konten 3570-3598
3600;1731;Agenturwarenabrechnung
3610;1730;Kreditkartenabrechnung
3611;1691;Verbindlichkeiten gegenüber Arbeitsgemeinschaften
3620;1709;Gewinnverfügungskonto stille Gesellschafter - sonstige Verbindlichkeiten
3630;1792;Sonstige Verrechnungskonten (Interimskonto)
3640;1665;Verbindlichkeiten gegenüber GmbH-Gesellschaftern
3641;1666;Verbindlichkeiten gegenüber GmbH-Gesellschaftern - Restlaufzeit bis 1 Jahr
3642;1667;Verbindlichkeiten gegenüber GmbH-Gesellschaftern - Restlaufzeit 1 bis 5 Jahre
3643;1668;Verbindlichkeiten gegenüber GmbH-Gesellschaftern - Restlaufzeit größer 5 Jahre
3655;1695;Verbindlichkeiten gegenüber stillen Gesellschaftern
3656;1696;Verbindlichkeiten gegenüber stillen Gesellschaftern - Restlaufzeit bis 1 Jahr
3657;1697;Verbindlichkeiten gegenüber stillen Gesellschaftern - Restlaufzeit 1 bis 5 Jahre
3658;1698;Verbindlichkeiten gegenüber stillen Gesellschaftern - Restlaufzeit größer 5 Jahre
3695;1793;Verrechnungskonto geleistete Anzahlungen bei Buchung über Kreditorenkonto
3700;1736;Verbindlichkeiten aus Steuern und Abgaben
3701;1737;Verbindlichkeiten aus Steuern und Abgaben - Restlaufzeit bis 1 Jahr
3710;1738;Verbindlichkeiten aus Steuern und Abgaben - Restlaufzeit 1 bis 5 Jahre
3715;1739;Verbindlichkeiten aus Steuern und Abgaben - Restlaufzeit größer 5 Jahre
3720;1740;Verbindlichkeiten aus Lohn und Gehalt
3725;1748;Verbindlichkeiten für Einbehaltungen von Arbeitnehmern
3726;1749;Verbindlichkeiten an das Finanzamt aus abzuführendem Bauabzugsbetrag
3730;1741;Verbindlichkeiten aus Lohn- und Kirchensteuer
3740;1742;Verbindlichkeiten im Rahmen der sozialen Sicherheit
3741;1743;Verbindlichkeiten im Rahmen der sozialen Sicherheit - Restlaufzeit bis 1 Jahr
3750;1744;Verbindlichkeiten im Rahmen der sozialen Sicherheit - Restlaufzeit 1 bis 5 Jahre
3755;1745;Verbindlichkeiten im Rahmen der sozialen Sicherheit - Restlaufzeit größer 5 Jahre
3759;1759;Voraussichtliche Beitragsschuld gegenüber den Sozialversicherungsträgern
3760;1746;Verbindlichkeiten aus Einbehaltungen (KapESt und SolZ, KiSt auf KapESt) für offene Ausschüttungen
3761;1747;Verbindlichkeiten für Verbrauchsteuern
3770;1750;Verbindlichkeiten aus Vermögensbildung
3771;1751;Verbindlichkeiten aus Vermögensbildung - Restlaufzeit bis 1 Jahr
3780;1752;Verbindlichkeiten aus Vermögensbildung - Restlaufzeit 1 bis 5 Jahre
3785;1753;Verbindlichkeiten aus Vermögensbildung - Restlaufzeit größer 5 Jahre
3786;1796;Ausgegebene Geschenkgutscheine
3790;1755;Lohn- und Gehaltsverrechnungskonto
3798;1728;Umsatzsteuer aus im anderen EU-Land steuerpflichtigen elektronischen Dienstleistungen
3799;1729;Steuerzahlungen aus im anderen EU-Land steuerpflichtigen Leistungen
3800;1770;Umsatzsteuer
3801;1771;Umsatzsteuer 7%
3802;1772;Umsatzsteuer aus innergemeinschaftlichem Erwerb
3804;1774;Umsatzsteuer aus innergemeinschaftlichem Erwerb 19 %
3806;1776;Umsatzsteuer 19 %
3807;1777;Umsatzsteuer aus im Inland steuerpflichtigen EU-Lieferungen
3808;1778;Umsatzsteuer aus im Inland steuerpflichtigen EU-Lieferungen 19 %
3809;1779;Umsatzsteuer aus innergemeinschaftlichem Erwerb ohne Vorsteuerabzug
3810;1760;Umsatzsteuer nicht fällig
3811;1761;Umsatzsteuer nicht fällig 7 %
3812;1762;Umsatzsteuer nicht fällig aus im Inland steuerpflichtigen EU-Lieferungen
3814;1764;Umsatzsteuer nicht fällig aus im Inland steuerpflichtigen EU-Lieferungen 19 %
3816;1766;Umsatzsteuer nicht fällig 19 %
3817;1767;Umsatzsteuer aus im anderen EU-Land steuerpflichtigen Lieferungen
3818;1768;Umsatzsteuer aus im anderen EU-Land steuerpflichtigen sonstigen Leistungen/Werklieferungen
3819;1794;Umsatzsteuer aus Erwerb als letzter Abnehmer innerhalb eines Dreiecksgeschäfts
3820;1780;Umsatzsteuer-Vorauszahlungen
3830;1781;Umsatzsteuer-Vorauszahlungen 1/11
3831;1798;Umsatzsteuer aus im Inland steuerpflichtigen EU-Lieferungen, nur OSS
3832;1782;Nachsteuer, UStVA Kz. 65
3834;1784;Umsatzsteuer aus innergemeinschaftlichem Erwerb von Neufahrzeugen von Lieferanten ohne Umsatzsteuer-Identifikationsnummer
3835;1785;Umsatzsteuer nach § 13b UStG
3837;1787;Umsatzsteuer nach § 13b UStG 19 %
3839;1769;Umsatzsteuer aus der Auslagerung von Gegenständen aus einem Umsatzsteuerlager
3840;1789;Umsatzsteuer laufendes Jahr
3841;1790;Umsatzsteuer Vorjahr
3845;1791;Umsatzsteuer frühere Jahre
3850;1788;Einfuhrumsatzsteuer aufgeschoben bis...
3851;1783;In Rechnung unrichtig oder unberechtigt ausgewiesene Steuerbeträge, UStVA Kz. 69
3854;1754;Steuerzahlungen an andere Länder
3860;1797;Verbindlichkeiten aus Umsatzsteuer-Vorauszahlungen
3865;1725;Umsatzsteuer in Folgeperiode fällig (§§ 13 Abs. 1 Nr. 6 und 13b Abs. 2 UStG)
3900;0990;Passive Rechnungsabgrenzung
4000;8000;Umsatzerlöse (Zur freien Verfügung) 1
4001;8001;Umsatzerlöse (Zur freien Verfügung) 2
4002;8002;Umsatzerlöse (Zur freien Verfügung) 3
4003;8003;Umsatzerlöse (Zur freien Verfügung) 4
4004;8004;Umsatzerlöse (Zur freien Verfügung) 5
4100;8100;Steuerfreie Umsätze § 4 Nr. 8 ff. UStG
4105;8105;Steuerfreie Umsätze nach § 4 Nr. 12 UStG (Vermietung und Verpachtung)
4110;8110;Sonstige steuerfreie Umsätze Inland
4120;8120;Steuerfreie Umsätze nach § 4 Nr. 1a UStG
4125;8125;Steuerfreie Innergemeinschaftliche Lieferungen nach § 4 Nr. 1b UStG
4130;8130;Lieferungen des ersten Abnehmers bei innergemeinschaftlichen Dreiecksgeschäften § 25b Abs. 2 UStG
4135;8135;Steuerfreie innergemeinschaftliche Lieferungen von Neufahrzeugen an Abnehmer ohne Umsatzsteuer-Identifikationsnummer
4136;8191;Umsatzerlöse nach §§ 25 und 25a UStG 19 % USt
4138;8193;Umsatzerlöse nach §§ 25 und 25a UStG ohne USt
4139;8194;Umsatzerlöse aus Reiseleistungen § 25 Abs. 2 UStG, steuerfrei
4140;8140;Steuerfreie Umsätze Offshore etc.
4150;8150;Sonstige steuerfreie Umsätze (z. B. § 4 Nr. 2 bis 7 UStG)
4160;8160;Steuerfreie Umsätze ohne Vorsteuerabzug zum Gesamtumsatz gehörend, § 4 UStG
4165;8165;Steuerfreie Umsätze ohne Vorsteuerabzug zum Gesamtumsatz gehörend
4180;8190;Erlöse, die mit den Durchschnittssätzen des § 24 UStG versteuert werden
4185;8195;Erlöse als Kleinunternehmer nach § 19 Abs. 1 UStG
4186;8196;Erlöse aus Geldspielautomaten 19 % USt
4200;8200;Erlöse
4290;8290;Erlöse 0 % USt
4300;8300;Erlöse 7 % USt
4310;8310;Erlöse aus im Inland steuerpflichtigen EU-Lieferungen 7 % USt
4315;8315;Erlöse aus im Inland steuerpflichtigen EU-Lieferungen 19 % USt
4320;8320;Erlöse aus im anderen EU-Land steuerpflichtigen Lieferungen, im Inland nicht steuerbar
4331;8331;Erlöse aus im anderen EU-Land steuerpflichtigen elektronischen Dienstleistungen
4334;8300;Erlöse 7 % USt
4335;8335;Erlöse aus Lieferungen von Mobilfunkgeräten, Tablet-Computern, Spielekonsolen und integrierten Schaltkreisen, für die der Leistungsempfänger die Umsatzsteuer nach § 13b UStG schuldet
4336;8336;Erlöse aus im anderen EU-Land steuerpflichtigen sonstigen Leistungen, für die der Leistungsempfänger die Umsatzsteuer schuldet
4337;8337;Erlöse aus Leistungen, für die der Leistungsempfänger die Umsatzsteuer nach § 13b UStG schuldet
4338;8338;Erlöse aus im Drittland steuerbaren Leistungen, im Inland nicht steuerbare Umsätze
4339;8339;Erlöse aus im anderen EU-Land steuerbaren Leistungen, im Inland nicht steuerbare Umsätze
4340;8340;Erlöse 16 % USt
4400;8400;Erlöse 19 % USt
4410;8400;Erlöse 19 % USt
4449;8449;Erlöse aus im Inland steuerpflichtigen elektronischen Dienstleistungen 19 % USt
4499;8499;Nebenerlöse (Bezug zu Materialaufwand)
4510;8520;Erlöse Abfallverwertung
4520;8540;Erlöse Leergut
4560;8510;Provisionsumsätze
4564;8514;Provisionsumsätze, steuerfrei § 4 Nr. 8 ff. UStG
4565;8515;Provisionsumsätze, steuerfrei § 4 Nr. 5 UStG
4569;8519;Provisionsumsätze 19 % USt
4570;8570;Sonstige Erträge aus Provisionen, Lizenzen und Patenten
4574;8574;Sonstige Erträge aus Provisionen, Lizenzen und Patenten, steuerfrei § 4 Nr. 8 ff. UStG
4575;8575;Sonstige Erträge aus Provisionen, Lizenzen und Patenten, steuerfrei § 4 Nr. 5 UStG
4576;8576;Sonstige Erträge aus Provisionen, Lizenzen und Patenten 7 % USt
4579;8579;Sonstige Erträge aus Provisionen, Lizenzen und Patenten 19 % USt
4600;8900;Unentgeltliche Wertabgaben
4650;8932;Unentgeltliche Erbringung einer sonstigen Leistung 7 % USt
4656;8932;Unentgeltliche Erbringung einer sonstigen Leistung 7 % USt
4659;8929;Unentgeltliche Erbringung einer sonstigen Leistung ohne USt
4660;8925;Unentgeltliche Erbringung einer sonstigen Leistung 19 % USt
4670;8945;Unentgeltliche Zuwendung von Waren 7 % USt
4676;8945;Unentgeltliche Zuwendung von Waren 7 % USt
4679;8949;Unentgeltliche Zuwendung von Waren ohne USt
4680;8940;Unentgeltliche Zuwendung von Waren 19 % USt
4686;8935;Unentgeltliche Zuwendung von Gegenständen 19 % USt
4689;8939;Unentgeltliche Zuwendung von Gegenständen ohne USt
4690;8950;Nicht steuerbare Umsätze (Innenumsätze)
4695;8955;Umsatzsteuervergütungen, z.B. nach § 24 UStG
4699;8959;Direkt mit dem Umsatz verbundene Steuern
4700;8700;Erlösschmälerungen
4701;8701;Erlösschmälerungen für steuerfreie Umsätze nach § 4 Nr. 8 ff. UStG
4702;8702;Erlösschmälerungen für steuerfreie Umsätze nach § 4 Nr. 2 bis 7 UStG
4703;8703;Erlösschmälerungen für sonstige steuerfreie Umsätze ohne Vorsteuerabzug
4704;8704;Erlösschmälerungen für sonstige steuerfreie Umsätze mit Vorsteuerabzug
4705;8705;Erlösschmälerungen aus steuerfreien Umsätzen § 4 Nr. 1a UStG
4706;8706;Erlösschmälerungen für steuerfreie innergemeinschaftliche Dreiecksgeschäfte nach § 25b Abs. 2 und 4 UStG
4710;8710;Erlösschmälerungen 7 % USt
4719;8719;Erlösschmälerungen 0 % USt
4720;8720;Erlösschmälerungen 19 % USt
4724;8724;Erlösschmälerungen aus steuerfreien innergemeinschaftlichen Lieferungen
4725;8725;Erlösschmälerungen aus im Inland steuerpflichtigen EU-Lieferungen 7 % USt
4726;8726;Erlösschmälerungen aus im Inland steuerpflichtigen EU-Lieferungen 19 % USt
4727;8727;Erlösschmälerungen aus im anderen EU-Land steuerpflichtigen Lieferungen
4730;8730;Gewährte Skonti
4731;8731;Gewährte Skonti 7 % USt
4734;8734;Gewährte Skonti 0 % USt
4736;8736;Gewährte Skonti 19 % USt
4738;8738;Gewährte Skonti a. Lieferungen v. Mobilfunkgeräten etc., für die der Leistungsempfänger die Umsatzst. nach § 13b Abs. 2 Nr. 10 UStG schuldet
4741;8741;Gewährte Skonti aus Leistungen, für die der Leistungsempfänger die Umsatzsteuer nach § 13b UStG schuldet
4742;8742;Gewährte Skonti aus Erlöse aus im anderen EU-Land steuerpflichtigen sonstigen Leistungen, für die der Leistungsempfänger die Umsatzsteuer schuldet
4743;8743;Gewährte Skonti aus steuerfreien innergemeinschaftlichen Lieferungen § 4 Nr. 1b UStG
4745;8745;Gewährte Skonti aus im Inland steuerpflichtigen EU-Lieferungen
4746;8746;Gewährte Skonti aus im Inland steuerpflichtigen EU-Lieferungen 7 % USt
4748;8748;Gewährte Skonti aus im Inland steuerpflichtigen EU-Lieferungen 19 % USt
4750;8750;Gewährte Boni 7 % USt
4760;8760;Gewährte Boni 19 % USt
4769;8769;Gewährte Boni
4770;8770;Gewährte Rabatte
4780;8780;Gewährte Rabatte 7 % USt
4790;8790;Gewährte Rabatte 19 % USt
4800;8980;Bestandsveränderungen - fertige Erzeugnisse
4810;8960;Bestandsveränderungen - unfertige Erzeugnisse
4815;8970;Bestandsveränderungen - unfertige Leistungen
4816;8975;Bestandsveränderungen in Ausführung befindlicher Bauaufträge
4818;8977;Bestandsveränderungen in Arbeit befindlicher Aufträge
4820;8990;Andere aktivierte Eigenleistungen
4824;8994;Aktivierte Eigenleistungen (den Herstellungskosten zurechenbare Fremdkapitalzinsen)
4825;8995;Aktivierte Eigenleistungen zur Erstellung von selbst geschaffenen immateriellen Vermögensgegenständen
4830;8603;Sonstige betriebliche Erträge
4832;8606;Sonstige betriebliche Erträge von verbundenen Unternehmen
4833;8607;Andere Nebenerlöse
4834;8649;Sonstige Erträge betrieblich und regelmäßig 16 % USt
4835;8605;Sonstige Erträge betrieblich und regelmäßig
4836;8640;Sonstige Erträge betrieblich und regelmäßig 19 % USt
4837;2707;Sonstige Erträge betriebsfremd und regelmäßig
4838;8604;Erstattete Vorsteuer anderer Länder
4839;2709;Sonstige Erträge unregelmäßig
4840;2660;Erträge aus der Währungsumrechnung
4841;8609;Sonstige Erträge betrieblich und regelmäßig, steuerfrei § 4 Nr. 8 ff. UStG
4842;8625;Sonstige betriebliche Erträge, steuerfrei z. B. § 4 Nr. 2 bis 7 UStG
4843;2666;Erträge aus Bewertung Finanzmittelfonds
4844;8827;Erlöse aus Verkäufen Sachanlagevermögen steuerfrei § 4 Nr. 1a UStG (bei Buchgewinn)
4845;8820;Erlöse aus Verkäufen Sachanlagevermögen 19 % USt (bei Buchgewinn)
4847;2661;Erträge aus der Währungsumrechnung (nicht § 256a HGB)
4848;8828;Erlöse aus Verkäufen Sachanlagevermögen steuerfrei § 4 Nr. 1b UStG (bei Buchgewinn)
4849;8829;Erlöse aus Verkäufen Sachanlagevermögen (bei Buchgewinn)
4850;8837;Erlöse aus Verkäufen immaterieller Vermögensgegenstände (bei Buchgewinn)
4851;8838;Erlöse aus Verkäufen Finanzanlagen (bei Buchgewinn)
4852;8839;Erlöse aus Verkäufen Finanzanlagen § 3 Nr. 40 EStG bzw. § 8b Abs. 2 KStG (bei Buchgewinn)
4855;2315;Anlagenabgänge Sachanlagen (Restbuchwert bei Buchgewinn)
4856;2316;Anlagenabgänge immaterielle Vermögensgegenstände (Restbuchwert bei Buchgewinn)
4857;2317;Anlagenabgänge Finanzanlagen (Restbuchwert bei Buchgewinn)
4858;2318;Anlagenabgänge Finanzanlagen § 3 Nr. 40 EStG bzw. § 8b Abs. 2 KStG (Restbuchwert bei Buchgewinn)
4860;2750;Grundstückserträge
4861;2751;Erlöse aus Vermietung und Verpachtung, umsatzsteuerfrei § 4 Nr. 12 UStG
4862;2752;Erlöse aus Vermietung und Verpachtung 19 % USt
4901;2723;Erträge aus der Veräußerung von Anteilen an Kapitalgesellschaften (Finanzanlagevermögen) § 3 Nr. 40 EStG bzw. § 8b Abs. 2 KStG
4904;2724;Abgänge Wertpapiere des Umlaufvermögens § 8b Abs. 2 KStG (Buchwert bei Buchgewinn)
4905;2725;Erträge aus dem Abgang von Gegenständen des Umlaufvermögens (außer Vorräte)
4906;2726;Erträge aus dem Abgang von Gegenständen des Umlaufvermögens (außer Vorräte) § 3 Nr. 40 EStG bzw. § 8b Abs. 2 KStG
4910;2710;Erträge aus Zuschreibungen des Sachanlagevermögens
4911;2711;Erträge aus Zuschreibungen des immateriellen Anlagevermögens
4912;2712;Erträge aus Zuschreibungen des Finanzanlagevermögens
4913;2713;Erträge aus Zuschreibungen des Finanzanlagevermögens § 3 Nr. 40 EStG bzw. § 8b Abs. 3 S. 8 KStG
4914;2714;Erträge aus Zuschreibungen § 3 Nr. 40 EStG bzw. § 8b Abs. 2 KStG
4915;2715;Erträge aus Zuschreibungen des Umlaufvermögens (außer Vorräte)
4916;2716;Erträge aus Zuschreibungen des Umlaufvermögens § 3 Nr. 40 EStG bzw. § 8b Abs. 3 S. 8 KStG
4920;2730;Erträge aus der Herabsetzung der Pauschalwertberichtigung auf Forderungen
4923;2731;Erträge aus der Herabsetzung der Einzelwertberichtigung auf Forderungen
4925;2732;Erträge aus abgeschriebenen Forderungen
4927;2727;Erträge aus der Auflösung einer steuerlichen Rücklage nach § 6b Abs. 3 EStG
4929;2729;Erträge aus der Auflösung der Rücklage für Ersatzbeschaffung, R 6.6 EStR
4930;2735;Erträge aus der Auflösung von Rückstellungen
4932;2736;Erträge aus der Herabsetzung von Verbindlichkeiten
4935;2740;Erträge aus der Auflösung sonstiger steuerlicher Rücklagen
4937;2741;Erträge aus der Auflösung steuerrechtlicher Sonderabschreibungen
4938;2737;Erträge aus der Auflösung einer steuerlichen Rücklage nach § 4g EStG
4940;8590;Verrechnete sonstige Sachbezüge (keine Waren)
4941;8591;Sachbezüge 7 % USt (Waren)
4945;8595;Sachbezüge 19 % USt (Waren)
4946;8610;Verrechnete sonstige Sachbezüge
4947;8611;Verrechnete sonstige Sachbezüge aus Fahrzeug-Gestellung 19 % USt
4948;8613;Verrechnete sonstige Sachbezüge 19 % USt
4949;8614;Verrechnete sonstige Sachbezüge ohne Umsatzsteuer
4960;2520;Periodenfremde Erträge
4970;2742;Versicherungsentschädigungen und Schadenersatzleistungen
4972;2749;Erstattungen Aufwendungsausgleichsgesetz
4975;2743;Investitionszuschüsse (steuerpflichtig)
4980;2744;Investitionszulagen (steuerfrei)
4981;2746;Steuerfreie Erträge aus der Auflösung von steuerlichen Rücklagen
4982;2747;Sonstige steuerfreie Betriebseinnahmen
4987;2760;Erträge aus der Aktivierung unentgeltlich erworbener Vermögensgegenstände
4989;2762;Kostenerstattungen, Rückvergütungen und Gutschriften für frühere Jahre
4992;2764;Erträge aus Verwaltungskostenumlagen
5000;4000;Aufwendungen für Roh-, Hilfs- und Betriebsstoffe und für bezogene Waren
5100;3000;Einkauf Roh-, Hilfs- und Betriebsstoffe
5110;3010;Einkauf Roh-, Hilfs- und Betriebsstoffe 7 % Vorsteuer
5129;3029;Einkauf Roh-, Hilfs- und Betriebsstoffe ohne Vorsteuerabzug
5130;3030;Einkauf Roh-, Hilfs- und Betriebsstoffe 19 % Vorsteuer
5160;3060;Einkauf Roh-, Hilfs- und Betriebsstoffe, innergemeinschaftlicher Erwerb 7 % Vorsteuer und 7 % Umsatzsteuer
5162;3062;Einkauf Roh-, Hilfs- und Betriebsstoffe, innergemeinschaftlicher Erwerb 19 % Vorsteuer und 19 % Umsatzsteuer
5166;3066;Einkauf Roh-, Hilfs- und Betriebsstoffe, innergemeinschaftlicher Erwerb ohne Vorsteuer und 7 % Umsatzsteuer
5167;3067;Einkauf Roh-, Hilfs- und Betriebsstoffe, innergemeinschaftlicher Erwerb ohne Vorsteuer und 19 % Umsatzsteuer
5170;3070;Einkauf Roh-, Hilfs- und Betriebsstoffe 5,5 % Vorsteuer
5171;3071;Einkauf Roh-, Hilfs- und Betriebsstoffe 9,0 % Vorsteuer
5175;3075;Einkauf Roh-, Hilfs- und Betriebsstoffe aus einem USt-Lager § 13a UStG 7 % Vorsteuer und 7 % Umsatzsteuer
5176;3076;Einkauf Roh-, Hilfs- und Betriebsstoffe aus einem USt-Lager § 13a UStG 19 % Vorsteuer und 19 % Umsatzsteuer
5189;3089;Erwerb Roh-, Hilfs- und Betriebsstoffe als letzter Abnehmer innerhalb Dreiecksgeschäft 19 % Vorsteuer und 19 % Umsatzsteuer
5190;3090;Energiestoffe (Fertigung)
5191;3091;Energiestoffe (Fertigung) 7 % Vorsteuer
5192;3092;Energiestoffe (Fertigung) 19 % Vorsteuer
5200;3200;Wareneingang
5300;3300;Wareneingang 7 % Vorsteuer
5347;3347;Wareneingang 7 % Vorsteuer
5349;3349;Wareneingang ohne Vorsteuerabzug
5400;3400;Wareneingang 19 % Vorsteuer
5418;3418;Wareneingang 19 % Vorsteuer
5420;3420;Innergemeinschaftlicher Erwerb 7 % Vorsteuer und 7 % Umsatzsteuer
5425;3425;Innergemeinschaftlicher Erwerb 19 % Vorsteuer und 19 % Umsatzsteuer
5430;3430;Innergemeinschaftlicher Erwerb ohne Vorsteuer und 7 % Umsatzsteuer
5435;3435;Innergemeinschaftlicher Erwerb ohne Vorsteuer und 19 % Umsatzsteuer
5440;3440;Innergemeinschaftlicher Erwerb von Neufahrzeugen von Lieferanten ohne Umsatzsteuer-Identifikationsnummer 19 % Vorsteuer und 19 % Umsatzsteuer
5505;3505;Wareneingang 5,5 % Vorsteuer
5540;3540;Wareneingang zum Durchschnittssatz nach § 24 UStG 9,0 % Vorsteuer
5550;3550;Steuerfreier innergemeinschaftlicher Erwerb
5551;3551;Wareneingang im Drittland steuerbar
5552;3552;Erwerb 1. Abnehmer innerhalb eines Dreieckgeschäftes
5553;3553;Erwerb Waren als letzter Abnehmer innerhalb Dreiecksgeschäft 19 % Vorsteuer und 19 % Umsatzsteuer
5558;3558;Wareneingang im anderen EU-Land steuerbar
5559;3559;Steuerfreie Einfuhren
5560;3560;Waren aus einem Umsatzsteuerlager, § 13a UStG 7 % Vorsteuer und 7 % Umsatzsteuer
5565;3565;Waren aus einem Umsatzsteuerlager, § 13a UStG 19 % Vorsteuer und 19 % Umsatzsteuer
5600;3600;Nicht abziehbare Vorsteuer
5610;3610;Nicht abziehbare Vorsteuer 7 %
5660;3660;Nicht abziehbare Vorsteuer 19 %
5700;3700;Nachlässe
5701;3701;Nachlässe aus Einkauf Roh-, Hilfs- und Betriebsstoffe
5710;3710;Nachlässe 7 % Vorsteuer
5714;3714;Nachlässe aus Einkauf Roh-, Hilfs- und Betriebsstoffe 7 % Vorsteuer
5715;3715;Nachlässe aus Einkauf Roh-, Hilfs- und Betriebsstoffe 19 % Vorsteuer
5717;3717;Nachlässe aus Einkauf Roh-, Hilfs- und Betriebsstoffe, innergemeinschaftlicher Erwerb 7 % Vorsteuer und 7 % Umsatzsteuer
5718;3718;Nachlässe aus Einkauf Roh-, Hilfs- und Betriebsstoffe, innergemeinschaftlicher Erwerb 19 % Vorsteuer und 19 % Umsatzsteuer
5720;3720;Nachlässe 19 % Vorsteuer
5724;3724;Nachlässe aus innergemeinschaftlichem Erwerb 7 % Vorsteuer und 7 % Umsatzsteuer
5725;3725;Nachlässe aus innergemeinschaftlichem Erwerb 19 % Vorsteuer und 19 % Umsatzsteuer
5730;3730;Erhaltene Skonti
5731;3731;Erhaltene Skonti 7 % Vorsteuer
5733;3733;Erhaltene Skonti aus Einkauf Roh-, Hilfs- und Betriebsstoffe
5734;3734;Erhaltene Skonti aus Einkauf Roh-, Hilfs- und Betriebsstoffe 7 % Vorsteuer
5736;3736;Erhaltene Skonti 19 % Vorsteuer
5738;3738;Erhaltene Skonti aus Einkauf Roh-, Hilfs- und Betriebsstoffe 19 % Vorsteuer
5741;3741;Erhaltene Skonti aus Einkauf Roh-, Hilfs- und Betriebsstoffe aus steuerpflichtigem innergemeinschaftlichem Erwerb 19 % Vorsteuer und 19 % Umsatzsteuer
5743;3743;Erhaltene Skonti aus Einkauf Roh-, Hilfs- und Betriebsstoffe aus steuerpflichtigem innergemeinschaftlichem Erwerb 7 % Vorsteuer und 7 % Umsatzsteuer
5744;3744;Erhaltene Skonti aus Einkauf Roh-, Hilfs- und Betriebsstoffe aus steuerpflichtigem innergemeinschaftlichem Erwerb
5745;3745;Erhaltene Skonti aus steuerpflichtigem innergemeinschaftlichem Erwerb
5746;3746;Erhaltene Skonti aus steuerpflichtigem innergemeinschaftlichem Erwerb 7 % Vorsteuer und 7 % Umsatzsteuer
5748;3748;Erhaltene Skonti aus steuerpflichtigem innergemeinschaftlichem Erwerb 19 % Vorsteuer und 19 % Umsatzsteuer
5750;3750;Erhaltene Boni 7 % Vorsteuer
5753;3753;Erhaltene Boni aus Einkauf Roh-, Hilfs- und Betriebsstoffe
5754;3754;Erhaltene Boni aus Einkauf Roh-, Hilfs- und Betriebsstoffe 7 % Vorsteuer
5755;3755;Erhaltene Boni aus Einkauf Roh-, Hilfs- und Betriebsstoffe 19 % Vorsteuer
5760;3760;Erhaltene Boni 19 % Vorsteuer
5769;3769;Erhaltene Boni
5770;3770;Erhaltene Rabatte
5780;3780;Erhaltene Rabatte 7 % Vorsteuer
5783;3783;Erhaltene Rabatte aus Einkauf Roh-, Hilfs- und Betriebsstoffe
5784;3784;Erhaltene Rabatte aus Einkauf Roh-, Hilfs- und Betriebsstoffe 7 % Vorsteuer
5785;3785;Erhaltene Rabatte aus Einkauf Roh-, Hilfs- und Betriebsstoffe 19 % Vorsteuer
5787;3787;Erhaltene Skonti aus Einkauf Roh-, Hilfs- und Betriebsstoffe 9,0 % Vorsteuer
5789;3789;Erhaltene Skonti aus Einkauf Roh-, Hilfs- und Betriebsstoffe 9,5 % Vorsteuer
5790;3790;Erhaltene Rabatte 19 % Vorsteuer
5792;3792;Erhaltene Skonti aus Erwerb Roh-, Hilfs- und Betriebsstoffe als letzter Abnehmer innerhalb Dreiecksgeschäft 19 % Vorsteuer und 19 % Umsatzsteuer
5793;3793;Erhaltene Skonti aus Erwerb Waren als letzter Abnehmer innerhalb Dreiecksgeschäft 19 % Vorsteuer und 19 % Umsatzsteuer
5794;3794;Erhaltene Skonti 5,5 % Vorsteuer
5795;3795;Erhaltene Skonti 9,0 % Vorsteuer
5797;3797;Erhaltene Skonti 9,5 % Vorsteuer
5798;3798;Erhaltene Skonti aus Einkauf Roh-, Hilfs- und Betriebsstoffe 5,5 % Vorsteuer
5800;3800;Bezugsnebenkosten
5820;3830;Leergut
5840;3850;Zölle und Einfuhrabgaben
5860;3990;Verrechnete Stoffkosten (Gegenkonto zu 5000-99)
5880;3960;Bestandsveränderungen Roh-, Hilfs- und Betriebsstoffe sowie bezogene Waren
5881;3950;Bestandsveränderungen Waren
5885;3955;Bestandsveränderungen Roh-, Hilfs- und Betriebsstoffe
5900;3100;Fremdleistungen
5906;3106;Fremdleistungen 19 % Vorsteuer
5908;3108;Fremdleistungen 7 % Vorsteuer
5909;3109;Fremdleistungen ohne Vorsteuer
5910;3110;Bauleistungen eines im Inland ansässigen Unternehmers 7 % Vorsteuer und 7 % Umsatzsteuer
5913;3113;Sonstige Leistungen eines im anderen EU-Land ansässigen Unternehmers 7 % Vorsteuer und 7 % Umsatzsteuer
5915;3115;Leistungen eines im Ausland ansässigen Unternehmers 7 % Vorsteuer und 7 % Umsatzsteuer
5920;3120;Bauleistungen eines im Inland ansässigen Unternehmers 19 % Vorsteuer und 19 % Umsatzsteuer
5923;3123;Sonstige Leistungen eines im anderen EU-Land ansässigen Unternehmers 19 % Vorsteuer und 19 % Umsatzsteuer
5925;3125;Leistungen eines im Ausland ansässigen Unternehmers 19 % Vorsteuer und 19 % Umsatzsteuer
5930;3130;Bauleistungen eines im Inland ansässigen Unternehmers ohne Vorsteuer und 7 % Umsatzsteuer
5933;3133;Sonstige Leistungen eines im anderen EU-Land ansässigen Unternehmers ohne Vorsteuer und 7 % Umsatzsteuer
5935;3135;Leistungen eines im Ausland ansässigen Unternehmers ohne Vorsteuer und 7 % Umsatzsteuer
5940;3140;Bauleistungen eines im Inland ansässigen Unternehmers ohne Vorsteuer und 19 % Umsatzsteuer
5943;3143;Sonstige Leistungen eines im anderen EU-Land ansässigen Unternehmers ohne Vorsteuer und 19 % Umsatzsteuer
5945;3145;Leistungen eines im Ausland ansässigen Unternehmers ohne Vorsteuer und 19 % Umsatzsteuer
5950;3150;Erhaltene Skonti aus Leistungen, für die als Leistungsempfänger die Steuer nach § 13b UStG geschuldet wird
5951;3151;Erhaltene Skonti aus Leistungen, für die als Leistungsempfänger die Steuer nach § 13b UStG geschuldet wird 19 % Vorsteuer und 19 % Umsatzsteuer
5953;3153;Erhaltene Skonti aus Leistungen, für die als Leistungsempfänger die Steuer nach § 13b UStG geschuldet wird ohne Vorsteuer aber mit Umsatzsteuer
5954;3154;Erhaltene Skonti aus Leistungen, für die als Leistungsempfänger die Steuer nach § 13b UStG geschuldet wird ohne Vorsteuer, mit 19 % Umsatzsteuer
5960;3160;Leistungen nach § 13b UStG mit Vorsteuerabzug
5965;3165;Leistungen nach § 13b UStG ohne Vorsteuerabzug
5970;3170;Fremdleistungen (Miet- und Pachtzinsen bewegliche Wirtschaftsgüter)
5975;3175;Fremdleistungen (Miet- und Pachtzinsen unbewegliche Wirtschaftsgüter)
5980;3180;Fremdleistungen (Entgelte für Rechte und Lizenzen)
6000;4100;Löhne und Gehälter
6010;4110;Löhne
6020;4120;Gehälter
6024;4124;Geschäftsführergehälter der GmbH-Gesellschafter
6026;4126;Tantiemen Gesellschafter-Geschäftsführer
6027;4127;Geschäftsführergehälter
6029;4129;Tantiemen Arbeitnehmer
6030;4190;Aushilfslöhne
6035;4195;Löhne für Minijobs
6036;4194;Pauschale Steuer für Minijobber
6037;4196;Pauschale Steuer für Gesellschafter-Geschäftsführer
6039;4198;Pauschale Steuer für Arbeitnehmer
6040;4199;Pauschale Steuer für Aushilfen
6045;4180;Bedienungsgelder
6060;4145;Freiwillige soziale Aufwendungen, lohnsteuerpflichtig
6066;4146;Freiwillige Zuwendungen an Minijobber
6067;4147;Freiwillige Zuwendungen an Gesellschafter-Geschäftsführer
6069;4149;Pauschale Steuer auf sonstige Bezüge (z. B. Fahrtkostenzuschüsse)
6070;4150;Krankengeldzuschüsse
6071;4151;Sachzuwendungen und Dienstleistungen an Minijobber
6072;4152;Sachzuwendungen und Dienstleistungen an Arbeitnehmer
6073;4153;Sachzuwendungen und Dienstleistungen an Gesellschafter-Geschäftsführer
6075;4155;Zuschüsse der Agenturen für Arbeit (Haben)
6076;4156;Aufwendungen aus der Veränderung von Urlaubsrückstellungen
6077;4157;Aufwendungen aus der Veränderung von Urlaubsrückstellungen für Gesellschafter-Geschäftsführer
6079;4159;Aufwendungen aus der Veränderung von Urlaubsrückstellungen für Minijobber
6080;4170;Vermögenswirksame Leistungen
6090;4175;Fahrtkostenerstattung Wohnung/Arbeitsstätte
6100;4141;Soziale Abgaben und Aufwendungen für Altersversorgung und für Unterstützung
6110;4130;Gesetzliche soziale Aufwendungen
6120;4138;Beiträge zur Berufsgenossenschaft
6130;4140;Freiwillige soziale Aufwendungen, lohnsteuerfrei
6140;4165;Aufwendungen für Altersversorgung
6147;4167;Pauschale Steuer auf sonstige Bezüge (z. B. Direktversicherungen)
6149;4166;Aufwendungen für Altersversorgung für Gesellschafter-Geschäftsführer
6150;4160;Versorgungskassen
6160;4169;Aufwendungen für Unterstützung
6170;4141;Sonstige soziale Abgaben
6171;4144;Soziale Abgaben für Minijobber
6200;4822;Abschreibungen auf immaterielle Vermögensgegenstände
6201;4823;Abschreibungen auf selbst geschaffene immaterielle Vermögensgegenstände
6205;4824;Abschreibungen auf den Geschäfts- oder Firmenwert
6209;4825;Außerplanmäßige Abschreibungen auf den Geschäfts- oder Firmenwert
6210;4826;Außerplanmäßige Abschreibungen auf immaterielle Vermögensgegenstände
6211;4827;Außerplanmäßige Abschreibungen auf selbst geschaffene immaterielle Vermögensgegenstände
6220;4830;Abschreibungen auf Sachanlagen (ohne AfA auf Fahrzeuge und Gebäude)
6221;4831;Abschreibungen auf Gebäude
6222;4832;Abschreibungen auf Fahrzeuge
6230;4840;Außerplanmäßige Abschreibungen auf Sachanlagen
6231;4841;Absetzung für außergewöhnliche technische und wirtschaftliche Abnutzung der Gebäude
6232;4842;Absetzung für außergewöhnliche technische und wirtschaftliche Abnutzung der Fahrzeuge
6233;4843;Absetzung für außergewöhnliche technische und wirtschaftliche Abnutzung sonstiger Wirtschaftsgüter
6240;4850;Abschreibungen auf Sachanlagen auf Grund steuerlicher Sondervorschriften
6241;4851;Sonderabschreibungen nach § 7g Abs. 5 EStG (ohne Fahrzeuge)
6242;4852;Sonderabschreibungen nach § 7g Abs. 5 EStG (für Fahrzeuge)
6243;4853;Kürzung der Anschaffungs- oder Herstellungskosten nach § 7g Abs. 2 EStG (ohne Fahrzeuge)
6244;4854;Kürzung der Anschaffungs- oder Herstellungskosten nach § 7g Abs. 2 EStG (für Fahrzeuge)
6245;4856;Sonderabschreibungen nach § 7b EStG (Mietwohnungsneubau)
6249;4859;Abzugsbetrag nach § 6b EStG
6250;4815;Kaufleasing
6260;4855;Sofortabschreibung geringwertiger Wirtschaftsgüter
6262;4860;Abschreibungen auf aktivierte, geringwertige Wirtschaftsgüter
6264;4862;Abschreibungen auf den Sammelposten Wirtschaftsgüter
6266;4865;Außerplanmäßige Abschreibungen auf aktivierte geringwertige Wirtschaftsgüter
6270;4880;Abschreibungen auf sonstige Vermögensgegenstände des Umlaufvermögens (soweit unüblich hoch)
6272;4882;Abschreibungen auf Umlaufvermögen, steuerrechtlich bedingt (soweit unüblich hoch)
6278;4892;Abschreibungen auf Roh-, Hilfs- und Betriebsstoffe/Waren (soweit unüblich hoch)
6279;4893;Abschreibungen auf fertige und unfertige Erzeugnisse (soweit unüblich hoch)
6280;2430;Forderungsverluste (soweit unüblich hoch)
6281;2431;Forderungsverluste 7 % USt (soweit unüblich hoch)
6286;2436;Forderungsverluste 19 % USt (soweit unüblich hoch)
6290;2440;Abschreibungen auf Forderungen gegenüber Kapitalgesellschaften, an denen eine Beteiligung besteht (soweit unüblich hoch), § 3c EStG bzw. § 8b Abs. 3 KStG
6291;2441;Abschreibungen auf Forderungen gegenüber Gesellschaftern und nahe stehenden Personen (soweit unüblich hoch), § 8b Abs. 3 KStG
6300;4900;Sonstige betriebliche Aufwendungen
6302;4902;Interimskonto für Aufwendungen in einem anderen Land, bei denen eine Vorsteuervergütung möglich ist
6303;4909;Fremdleistungen/Fremdarbeiten
6304;4905;Sonstige Aufwendungen betrieblich und regelmäßig
6305;4200;Raumkosten
6310;4210;Miete (unbewegliche Wirtschaftsgüter)
6313;4222;Vergütungen an Gesellschafter für die miet- oder pachtweise Überlassung ihrer unbeweglichen Wirtschaftsgüter
6315;4220;Pacht (unbewegliche Wirtschaftsgüter)
6316;4215;Leasing (unbewegliche Wirtschaftsgüter)
6317;4211;Aufwendungen für gemietete oder gepachtete unbewegliche Wirtschaftsgüter, die gewerbesteuerlich hinzuzurechnen sind
6318;4228;Miet- und Pachtnebenkosten, die gewerbesteuerlich nicht hinzuzurechnen sind
6320;4230;Heizung
6325;4240;Gas, Strom, Wasser
6330;4250;Reinigung
6335;4260;Instandhaltung betrieblicher Räume
6340;4270;Abgaben für betrieblich genutzten Grundbesitz
6345;4280;Sonstige Raumkosten
6350;4290;Grundstücksaufwendungen betrieblich
6352;2350;Sonstige Grundstücksaufwendungen (neutral)
6390;2380;Zuwendungen, Spenden, steuerlich nicht abziehbar
6391;2381;Zuwendungen, Spenden für wissenschaftliche und kulturelle Zwecke
6392;2382;Zuwendungen, Spenden für mildtätige Zwecke
6393;2383;Zuwendungen, Spenden für kirchliche, religiöse und gemeinnützige Zwecke
6394;2384;Zuwendungen, Spenden an politische Parteien
6395;2387;Zuwendungen, Spenden in das zu erhaltende Vermögen (Vermögensstock) einer Stiftung für gemeinnützige Zwecke
6397;2389;Zuwendungen, Spenden in das zu erhaltende Vermögen (Vermögensstock) einer Stiftung für kirchliche, religiöse und gemeinnützige Zwecke
6398;2390;Zuwendungen, Spenden an Stiftungen in das zu erhaltende Vermögen (Vermögensstock) für wissenschaftliche, mildtätige, kulturelle Zwecke
6400;4360;Versicherungen
6405;4366;Versicherungen für Gebäude
6410;4370;Netto-Prämie für Rückdeckung künftiger Versorgungsleistungen
6420;4380;Beiträge
6430;4390;Sonstige Abgaben
6436;4396;Steuerlich abzugsfähige Verspätungszuschläge und Zwangsgelder
6437;4397;Steuerlich nicht abzugsfähige Verspätungszuschläge und Zwangsgelder
6440;4139;Ausgleichsabgabe nach dem Schwerbehindertengesetz
6450;4801;Reparaturen und Instandhaltung von Bauten
6460;4800;Reparaturen und Instandhaltung von technischen Anlagen und Maschinen
6470;4805;Reparaturen und Instandhaltungen von anderen Anlagen und Betriebs- und Geschäftsausstattung
6475;4808;Zuführung zu Aufwandsrückstellungen
6485;4805;Reparaturen und Instandhaltung von anderen Anlagen
6490;4809;Sonstige Reparaturen und Instandhaltungen
6495;4806;Wartungskosten für Hard- und Software
6498;4810;Mietleasing bewegliche Wirtschaftsgüter für technische Anlagen und Maschinen
6500;4500;Fahrzeugkosten
6520;4520;Fahrzeug-Versicherungen
6530;4530;Laufende Fahrzeug-Betriebskosten
6540;4540;Fahrzeug-Reparaturen
6550;4550;Garagenmiete
6560;4570;Mietleasing Kfz
6565;4575;Mietleasingaufwendungen für Elektrofahrzeuge und Fahrräder, die gewerbesteuerlich hinzuzurechnen sind
6570;4580;Sonstige Fahrzeugkosten
6580;4560;Mautgebühren
6595;4595;Fremdfahrzeugkosten
6600;4600;Werbekosten
6605;4605;Streuartikel
6610;4630;Geschenke abzugsfähig ohne § 37b EStG
6611;4631;Geschenke abzugsfähig mit § 37b EStG
6612;4632;Pauschale Steuer für Geschenke und Zuwendungen abzugsfähig
6620;4635;Geschenke nicht abzugsfähig ohne § 37b EStG
6621;4636;Geschenke nicht abzugsfähig mit § 37b EStG
6622;4637;Pauschale Steuer für Geschenke und Zuwendungen nicht abzugsfähig
6625;4638;Geschenke ausschließlich betrieblich genutzt
6629;4639;Zugaben mit § 37b EStG
6630;4640;Repräsentationskosten
6640;4650;Bewirtungskosten
6641;4651;Sonstige eingeschränkt abziehbare Betriebsausgaben (abziehbarer Anteil)
6642;4652;Sonstige eingeschränkt abziehbare Betriebsausgaben (nicht abziehbarer Anteil)
6643;4653;Aufmerksamkeiten
6644;4654;Nicht abzugsfähige Bewirtungskosten
6645;4655;Nicht abzugsfähige Betriebsausgaben aus Werbe- und Repräsentationskosten
6650;4660;Reisekosten Arbeitnehmer
6660;4666;Reisekosten Arbeitnehmer Übernachtungsaufwand
6663;4663;Reisekosten Arbeitnehmer Fahrtkosten
6664;4664;Reisekosten Arbeitnehmer Verpflegungsmehraufwand
6668;4668;Kilometergelderstattung Arbeitnehmer
6700;4700;Kosten der Warenabgabe
6710;4710;Verpackungsmaterial
6740;4730;Ausgangsfrachten
6760;4750;Transportversicherungen
6770;4760;Verkaufsprovisionen
6780;4780;Fremdarbeiten (Vertrieb)
6790;4790;Aufwand für Gewährleistungen
6800;4910;Porto
6805;4920;Telefon
6810;4925;Internetkosten
6815;4930;Bürobedarf
6820;4940;Zeitschriften, Bücher, digitale Medien (Fachliteratur)
6821;4945;Fortbildungskosten
6822;4946;Freiwillige Sozialleistungen
6825;4950;Rechts- und Beratungskosten
6827;4957;Abschluss- und Prüfungskosten
6830;4955;Buchführungskosten
6833;4958;Vergütungen an Gesellschafter für die miet- oder pachtweise Überlassung ihrer beweglichen Wirtschaftsgüter
6835;4960;Mieten für Einrichtungen (bewegliche Wirtschaftsgüter)
6836;4961;Pacht (bewegliche Wirtschaftsgüter)
6837;4964;Aufwendungen für die zeitlich befristete Überlassung von Rechten (Lizenzen, Konzessionen)
6838;4963;Aufwendungen für gemietete oder gepachtete bewegliche Wirtschaftsgüter, die gewerbesteuerlich hinzuzurechnen sind
6840;4965;Mietleasing bewegliche Wirtschaftsgüter für Betriebs- und Geschäftsausstattung
6845;4985;Werkzeuge und Kleingeräte
6850;4980;Sonstiger Betriebsbedarf
6855;4970;Nebenkosten des Geldverkehrs
6856;4975;Aufwendungen aus Anteilen an Kapitalgesellschaften §§ 3 Nr. 40 und 3c EStG bzw. § 8b Abs. 1 und 4 KStG
6857;4976;Veräußerungskosten § 3 Nr. 40 EStG bzw. § 8b Abs. 2 KStG (bei Veräußerungsgewinn)
6858;4977;Veräußerungskosten § 3 Nr. 40 EStG bzw. § 8b Abs. 3 KStG (bei Veräußerungsverlust)
6859;4969;Aufwendungen für Abraum- und Abfallbeseitigung
6860;2170;Nicht abziehbare Vorsteuer
6865;2171;Nicht abziehbare Vorsteuer 7 %
6871;2176;Nicht abziehbare Vorsteuer 19 %
6875;2385;Nicht abziehbare Hälfte der Aufsichtsratsvergütungen
6876;2386;Abziehbare Aufsichtsratsvergütungen
6879;4971;Verwahrentgelt
6880;2150;Aufwendungen aus der Währungsumrechnung
6881;2151;Aufwendungen aus der Währungsumrechnung (nicht § 256a HGB)
6883;2166;Aufwendungen aus Bewertung Finanzmittelfonds
6884;8807;Erlöse aus Verkäufen Sachanlagevermögen steuerfrei § 4 Nr. 1a UStG (bei Buchverlust)
6885;8801;Erlöse aus Verkäufen Sachanlagevermögen 19 % USt (bei Buchverlust)
6888;8808;Erlöse aus Verkäufen Sachanlagevermögen steuerfrei § 4 Nr. 1b UStG (bei Buchverlust)
6889;8800;Erlöse aus Verkäufen Sachanlagevermögen (bei Buchverlust)
6890;8817;Erlöse aus Verkäufen immaterieller Vermögensgegenstände (bei Buchverlust)
6891;8818;Erlöse aus Verkäufen Finanzanlagen (bei Buchverlust)
6892;8819;Erlöse aus Verkäufen Finanzanlagen § 3 Nr. 40 EStG bzw. § 8b Abs. 3 KStG (bei Buchverlust)
6895;2310;Anlagenabgänge Sachanlagen (Restbuchwert bei Buchverlust)
6896;2311;Anlagenabgänge immaterielle Vermögensgegenstände (Restbuchwert bei Buchverlust)
6897;2312;Anlagenabgänge Finanzanlagen (Restbuchwert bei Buchverlust)
6898;2313;Anlagenabgänge Finanzanlagen § 3 Nr. 40 EStG bzw. § 8b Abs. 3 KStG (Restbuchwert bei Buchverlust)
6903;2323;Verluste aus der Veräußerung von Anteilen an Kapitalgesellschaften (Finanzanlagevermögen) § 3 Nr. 40 EStG bzw. § 8b Abs. 3 KStG
6904;2324;Abgänge Wertpapiere des Umlaufvermögens § 8b Abs. 3 KStG (Buchwert bei Buchverlust)
6905;2325;Verluste aus dem Abgang von Gegenständen des Umlaufvermögens (außer Vorräte)
6906;2326;Verluste aus dem Abgang von Gegenständen des Umlaufvermögens (außer Vorräte) § 3 Nr. 40 EStG bzw. § 8b Abs. 3 KStG
6910;4886;Abschreibungen auf Umlaufvermögen außer Vorräte und Wertpapiere des Umlaufvermögens (übliche Höhe)
6912;4887;Abschreibungen auf Umlaufvermögen außer Vorräte und Wertpapiere des Umlaufvermögens, steuerrechtlich bedingt (übliche Höhe)
6918;2347;Aufwendungen aus dem Erwerb eigener Anteile
6920;2450;Einstellung in die Pauschalwertberichtigung auf Forderungen
6922;2342;Einstellungen in die steuerliche Rücklage nach § 6b Abs. 3 EStG
6923;2451;Einstellung in die Einzelwertberichtigung auf Forderungen
6927;2345;Einstellungen in sonstige steuerliche Rücklagen
6928;2344;Einstellungen in die Rücklage für Ersatzbeschaffung nach R 6.6 EStR
6929;2339;Einstellungen in die steuerliche Rücklage nach § 4g EStG
6930;2400;Forderungsverluste (übliche Höhe)
6931;2401;Forderungsverluste 7 % USt (übliche Höhe)
6932;2402;Forderungsverluste aus steuerfreien EU-Lieferungen (übliche Höhe)
6933;2403;Forderungsverluste aus im Inland steuerpflichtigen EU-Lieferungen 7 % USt (übliche Höhe)
6936;2406;Forderungsverluste 19 % USt (übliche Höhe)
6938;2408;Forderungsverluste aus im Inland steuerpflichtigen EU-Lieferungen 19 % USt (übliche Höhe)
6960;2020;Periodenfremde Aufwendungen
6967;2307;Sonstige Aufwendungen betriebsfremd und regelmäßig
6968;2308;Sonstige nicht abziehbare Aufwendungen
6969;2309;Sonstige Aufwendungen unregelmäßig
6970;4990;Kalkulatorischer Unternehmerlohn
6972;4991;Kalkulatorische Miete und Pacht
6974;4992;Kalkulatorische Zinsen
6976;4993;Kalkulatorische Abschreibungen
6978;4994;Kalkulatorische Wagnisse
6979;4995;Kalkulatorischer Lohn für unentgeltliche Mitarbeiter
6980;2890;Verrechneter kalkulatorischer Unternehmerlohn
6982;2891;Verrechnete kalkulatorische Miete/Pacht
6984;2892;Verrechnete kalkulatorische Zinsen
6986;2893;Verrechnete kalkulatorische Abschreibungen
6988;2894;Verrechnete kalkulatorische Wagnisse
6989;2895;Verrechneter kalkulatorischer Lohn für unentgeltliche Mitarbeiter
6990;4996;Herstellungskosten
6992;4997;Verwaltungskosten
6994;4998;Vertriebskosten
6999;4999;Gegenkonto zu 6990 bis 6998
7000;2600;Erträge aus Beteiligungen
7002;2613;Erträge aus typisch stillen Beteiligungen
7003;2614;Erträge aus atypisch stillen Beteiligungen
7004;2603;Erträge aus Beteiligungen an Personengesellschaften (verbundene Unternehmen), § 9 GewStG bzw. § 18 EStG
7005;2615;Erträge aus Anteilen an Kapitalgesellschaften (Beteiligung) § 3 Nr. 40 EStG bzw. § 8b Abs. 1 KStG
7006;2616;Erträge aus Anteilen an Kapitalgesellschaften (verbundene Unternehmen) § 3 Nr. 40 EStG bzw. § 8b Abs. 1 KStG
7008;2618;Gewinnanteile aus gewerblichen und selbständigen Mitunternehmerschaften, § 9 GewStG bzw. § 18 EStG
7009;2619;Erträge aus Beteiligungen an verbundenen Unternehmen
7010;2620;Erträge aus anderen Wertpapieren und Ausleihungen des Finanzanlagevermögens
7011;2621;Erträge aus Ausleihungen des Finanzanlagevermögens
7012;2622;Erträge aus Ausleihungen des Finanzanlagevermögens an verbundenen Unternehmen
7013;2623;Erträge aus Anteilen an Personengesellschaften (Finanzanlagevermögen)
7014;2625;Erträge aus Anteilen an Kapitalgesellschaften (Finanzanlagevermögen) § 3 Nr. 40 EStG bzw. § 8b Abs. 1 und Abs. 4 KStG
7015;2626;Erträge aus Anteilen an Kapitalgesellschaften (verbundene Unternehmen) § 3 Nr. 40 EStG bzw. § 8b Abs. 1 KStG
7016;2646;Erträge aus Anteilen an Personengesellschaften (verbundene Unternehmen)
7017;2647;Erträge aus anderen Wertpapieren des Finanzanlagevermögens an Kapitalgesellschaften (verbundene Unternehmen)
7018;2648;Erträge aus anderen Wertpapieren des Finanzanlagevermögens an Personengesellschaften (verbundene Unternehmen)
7019;2649;Erträge aus anderen Wertpapieren und Ausleihungen des Finanzanlagevermögens aus verbundenen Unternehmen
7020;2640;Zins- und Dividendenerträge
7030;2641;Erhaltene Ausgleichszahlungen (als außenstehender Aktionär)
7100;2650;Sonstige Zinsen und ähnliche Erträge
7103;2655;Erträge aus Anteilen an Kapitalgesellschaften (Umlaufvermögen) § 3 Nr. 40 EStG bzw. § 8b Abs. 1 und 4 KStG
7104;2656;Erträge aus Anteilen an Kapitalgesellschaften (verbundene Unternehmen) § 3 Nr. 40 EStG bzw. § 8b Abs. 1 KStG
7105;2657;Zinserträge § 233a AO, steuerpflichtig
7106;2658;Zinserträge § 233a AO, steuerfrei (Anlage GK KSt)
7107;2653;Zinserträge § 233a AO und § 4 Abs. 5b EStG, steuerfrei
7109;2659;Sonstige Zinsen und ähnliche Erträge aus verbundenen Unternehmen
7110;2650;Sonstige Zinserträge
7115;2654;Erträge aus anderen Wertpapieren und Ausleihungen des Umlaufvermögens
7119;2650;Sonstige Zinserträge aus verbundenen Unternehmen
7120;2680;Zinsähnliche Erträge
7129;2689;Zinsähnliche Erträge aus verbundenen Unternehmen
7130;2670;Diskonterträge
7139;2679;Diskonterträge aus verbundenen Unternehmen
7140;2682;Steuerfreie Zinserträge aus der Abzinsung von Rückstellungen
7141;2683;Zinserträge aus der Abzinsung von Verbindlichkeiten
7142;2684;Zinserträge aus der Abzinsung von Rückstellungen
7143;2685;Zinserträge aus der Abzinsung von Pensionsrückstellungen und ähnlichen/vergleichbaren Verpflichtungen
7144;2686;Zinserträge aus der Abzinsung von Pensionsrückstellungen und ähnlichen/vergleichbaren Verpflichtungen zur Verrechnung nach § 246 Abs. 2 HGB
7145;2687;Erträge aus Vermögensgegenständen zur Verrechnung nach § 246 Abs. 2 HGB
7190;2790;Erträge aus Verlustübernahme
7192;2792;Erhaltene Gewinne auf Grund einer Gewinngemeinschaft
7194;2794;Erhaltene Gewinne auf Grund eines Gewinn- oder Teilgewinnabführungsvertrags
7200;4870;Abschreibungen auf Finanzanlagen (dauerhaft)
7201;4866;Abschreibungen auf Finanzanlagen (nicht dauerhaft)
7204;4871;Abschreibungen auf Finanzanlagen § 3 Nr. 40 EStG bzw. § 8b Abs. 3 KStG (dauerhaft)
7207;4877;Abschreibungen auf Finanzanlagen - verbundene Unternehmen
7208;4872;Aufwendungen auf Grund von Verlustanteilen an gewerblichen und selbständigen Mitunternehmerschaften, § 8 GewStG bzw. § 18 EStG
7210;4875;Abschreibungen auf Wertpapiere des Umlaufvermögens
7214;4876;Abschreibungen auf Wertpapiere des Umlaufvermögens § 3 Nr. 40 EStG bzw. § 8b Abs. 3 KStG
7217;4878;Abschreibungen auf Wertpapiere des Umlaufvermögens - verbundene Unternehmen
7250;4874;Abschreibungen auf Finanzanlagen auf Grund § 6b EStG-Rücklage
7255;4873;Abschreibungen auf Finanzanlagen auf Grund § 6b EStG-Rücklage, § 3 Nr. 40 EStG bzw. § 8b Abs. 3 KStG
7300;2100;Zinsen und ähnliche Aufwendungen
7302;2102;Steuerlich nicht abzugsfähige andere Nebenleistungen zu Steuern § 4 Abs. 5b EStG
7303;2103;Steuerlich abzugsfähige andere Nebenleistungen zu Steuern
7304;2104;Steuerlich nicht abzugsfähige andere Nebenleistungen zu Steuern
7305;2107;Zinsaufwendungen § 233a AO abzugsfähig
7306;2108;Zinsaufwendungen §§ 234 bis 237 AO nicht abzugsfähig
7308;2105;Zinsaufwendungen § 233a AO nicht abzugsfähig
7309;2109;Zinsaufwendungen an verbundene Unternehmen
7310;2110;Zinsaufwendungen für kurzfristige Verbindlichkeiten
7311;2111;Zinsaufwendungen §§ 234 bis 237 AO abzugsfähig
7316;2114;Zinsen für Gesellschafterdarlehen
7317;2117;Zinsen an Gesellschafter mit einer Beteiligung von mehr als 25 % bzw. diesen nahe stehende Personen
7318;2118;Zinsen auf Kontokorrentkonten
7319;2119;Zinsaufwendungen für kurzfristige Verbindlichkeiten an verbundene Unternehmen
7320;2120;Zinsaufwendungen für langfristige Verbindlichkeiten
7323;2123;Abschreibungen auf ein Agio oder Disagio/Damnum zur Finanzierung
7324;2124;Abschreibungen auf ein Agio oder Disagio/Damnum zur Finanzierung des Anlagevermögens
7325;2125;Zinsaufwendungen für Gebäude, die zum Betriebsvermögen gehören
7326;2126;Zinsen zur Finanzierung des Anlagevermögens
7327;2127;Renten und dauernde Lasten
7329;2129;Zinsaufwendungen für langfristige Verbindlichkeiten an verbundene Unternehmen
7330;2140;Zinsähnliche Aufwendungen
7339;2149;Zinsähnliche Aufwendungen an verbundene Unternehmen
7340;2130;Diskontaufwendungen
7349;2139;Diskontaufwendungen an verbundene Unternehmen
7350;2115;Zinsen und ähnliche Aufwendungen §§ 3 Nr. 40 und 3c EStG bzw. § 8b Abs. 1 und Abs. 4 KStG
7351;2116;Zinsen und ähnliche Aufwendungen an verbundene Unternehmen §§ 3 Nr. 40 und 3c EStG bzw. § 8b Abs. 1 KStG
7355;2141;Kreditprovisionen und Verwaltungskostenbeiträge
7360;2142;Zinsanteil der Zuführungen zu Pensionsrückstellungen
7361;2143;Zinsaufwendungen aus der Abzinsung von Verbindlichkeiten
7362;2144;Zinsaufwendungen aus der Abzinsung von Rückstellungen
7363;2145;Zinsaufwendungen aus der Abzinsung von Pensionsrückstellungen und ähnlichen/vergleichbaren Verpflichtungen
7364;2146;Zinsaufwendungen aus der Abzinsung von Pensionsrückstellungen und ähnlichen/vergleichbaren Verpflichtungen zur Verrechnung nach § 246 Abs. 2 HGB
7365;2147;Aufwendungen aus Vermögensgegenständen zur Verrechnung nach § 246 Abs. 2 HGB
7366;2148;Steuerlich nicht abzugsfähige Zinsaufwendungen aus der Abzinsung von Rückstellungen
7390;2490;Aufwendungen aus Verlustübernahme
7392;2492;Abgeführte Gewinne auf Grund einer Gewinngemeinschaft
7394;2494;Abgeführte Gewinne auf Grund eines Gewinn- oder Teilgewinnabführungsvertrags
7398;2491;Abgeführte Gewinnanteile (Soll) / ausgeglichene Verlustanteile (Haben) bei atypisch stiller Beteiligung
7399;2493;Abgeführte Gewinnanteile (Soll) / ausgeglichene Verlustanteile (Haben) bei typisch stiller Beteiligung § 8 GewStG
7451;2504;Erträge durch Verschmelzung und Umwandlung
7460;2590;Erträge aus der Anwendung von Übergangsvorschriften
7464;2594;Erträge aus der Anwendung von Übergangsvorschriften (latente Steuern)
7551;2004;Verluste durch Verschmelzung und Umwandlung
7553;2007;Aufwendungen für Restrukturierungs- und Sanierungsmaßnahmen
7560;2090;Aufwendungen aus der Anwendung von Übergangsvorschriften
7561;2091;Aufwendungen aus der Anwendung von Übergangsvorschriften (Pensionsrückstellungen)
7563;2094;Aufwendungen aus der Anwendung von Übergangsvorschriften (Latente Steuern)
7600;2200;Körperschaftsteuer
7603;2203;Körperschaftsteuer für Vorjahre
7604;2204;Körperschaftsteuererstattungen für Vorjahre
7607;2210;Solidaritätszuschlagerstattungen für Vorjahre
7608;2208;Solidaritätszuschlag
7609;2209;Solidaritätszuschlag für Vorjahre
7610;4320;Gewerbesteuer
7630;2213;Kapitalertragsteuer 25 %
7633;2216;Anrechenbarer Solidaritätszuschlag auf Kapitalertragsteuer 25 %
7638;2218;Ausländische Steuer auf im Inland steuerfreie DBA-Einkünfte
7639;2219;Anrechnung / Abzug ausländische Quellensteuer
7641;2281;Gewerbesteuernachzahlungen und Gewerbesteuererstattungen für Vorjahre nach § 4 Abs. 5b EStG
7643;2283;Erträge aus der Auflösung von Gewerbesteuerrückstellungen nach § 4 Abs. 5b EStG
7645;2250;Aufwendungen aus der Zuführung und Auflösung von latenten Steuern
7646;2260;Aufwendungen aus der Zuführung zu Steuerrückstellungen für Steuerstundung (BStBK)
7648;2265;Erträge aus der Auflösung von Steuerrückstellungen für Steuerstundung (BStBK)
7649;2255;Erträge aus der Zuführung und Auflösung von latenten Steuern
7650;4340;Sonstige Betriebssteuern
7675;4350;Verbrauchsteuer (sonstige Steuern)
7678;4355;Ökosteuer
7680;2375;Grundsteuer
7685;4510;Kfz-Steuer
7690;2285;Steuernachzahlungen Vorjahre für sonstige Steuern
7692;2287;Steuererstattungen Vorjahre für sonstige Steuern
7694;2289;Erträge aus der Auflösung von Rückstellungen für sonstige Steuern
7700;2860;Gewinnvortrag nach Verwendung
7720;2868;Verlustvortrag nach Verwendung
7730;2795;Entnahmen aus der Kapitalrücklage
7735;2796;Entnahmen aus der gesetzlichen Rücklage
7743;2840;Entnahmen aus der Rücklage für Anteile an einem herrschenden oder mehrheitlich beteiligten Unternehmen
7745;2797;Entnahmen aus satzungsmäßigen Rücklagen
7750;2799;Entnahmen aus anderen Gewinnrücklagen
7755;2745;Erträge aus Kapitalherabsetzung
7760;2495;Einstellungen in die Kapitalrücklage nach den Vorschriften über die vereinfachte Kapitalherabsetzung
7765;2496;Einstellungen in die gesetzliche Rücklage
7773;2480;Einstellungen in die Rücklage für Anteile an einem herrschenden oder mehrheitlich beteiligten Unternehmen
7775;2497;Einstellungen in satzungsmäßige Rücklagen
7780;2499;Einstellungen in andere Gewinnrücklagen
7788;2488;Änderung steuerlicher Ausgleichsposten (Körperschaften)
7790;2870;Vorabausschüttung
9292;9292;Statistisches Konto Fremdgeld
9293;9293;Gegenkonto zu 9292
9297;9297;Steuerlicher Ausgleichsposten (Körperschaften)
9960;9960;Bewertungskorrektur zu Forderungen aus Lieferungen und Leistungen (Währungsumrechnung)
9961;9961;Bewertungskorrektur zu sonstigen Verbindlichkeiten (Währungsumrechnung)
9962;9962;Bewertungskorrektur zu Guthaben bei Kreditinstituten (Bewertung Finanzmittelfonds)
9963;9963;Bewertungskorrektur zu Verbindlichkeiten gegenüber Kreditinstituten (Bewertung Finanzmittelfonds)
9964;9964;Bewertungskorrektur zu Verbindlichkeiten aus Lieferungen und Leistungen (Währungsumrechnung)
9965;9965;Bewertungskorrektur zu sonstigen Vermögensgegenständen (Währungsumrechnung)
